"VertexLitGeneric"
{
	"$baseTexture" "models/props_borealis/Pipesystem01a_skin2"
	"$surfaceprop" "metal"
	"$envmap" "env_cubemap"
 	"$basealphaenvmapmask" 1
	"$envmaptint" "[ .125 .125 .125]"
}

