"VertexLitGeneric"
{
	"$baseTexture" "Models/Zombie_Poison/hand"
	//"$bumpmap" "models/zombie_poison/hand_normal"
	//"$normalmapalphaenvmapmask" 1
	//"$envmap" "env_cubemap"
	//"$envmapcontrast" 1
}

