"Servers\DialogGameInfo.res"
{
	"DialogGameInfo"
	{
		"ControlName"		"CDialogGameInfo"
		"fieldName"		"DialogGameInfo"
		"xpos"		"384"
		"ypos"		"288"
		"wide"		"468"
		"tall"		"252"
		"autoResize"		"0"
		"pinCorner"		"0"
		"visible"		"1"
		"enabled"		"1"
		"tabPosition"		"0"
	}
	"SysMenu"
	{
		"ControlName"		"Menu"
		"fieldName"		"SysMenu"
		"xpos"		"0"
		"ypos"		"0"
		"wide"		"64"
		"tall"		"24"
		"autoResize"		"0"
		"pinCorner"		"0"
		"visible"		"0"
		"enabled"		"1"
		"tabPosition"		"0"
	}
	"Connect"
	{
		"ControlName"		"Button"
		"fieldName"		"Connect"
		"xpos"		"178"
		"ypos"		"214"
		"wide"		"80"
		"tall"		"24"
		"autoResize"		"0"
		"pinCorner"		"0"
		"visible"		"1"
		"enabled"		"1"
		"tabPosition"		"3"
		"labelText"		"#ServerBrowser_JoinGame"
		"textAlignment"		"west"
		"dulltext"		"0"
		"brighttext"		"0"
		"Default"		"1"
	}
	"Close"
	{
		"ControlName"		"Button"
		"fieldName"		"Close"
		"xpos"		"362"
		"ypos"		"214"
		"wide"		"80"
		"tall"		"24"
		"autoResize"		"0"
		"pinCorner"		"0"
		"visible"		"1"
		"enabled"		"1"
		"tabPosition"		"1"
		"labelText"		"#ServerBrowser_Close"
		"textAlignment"		"west"
		"dulltext"		"0"
		"brighttext"		"0"
		"Default"		"0"
	}
	"Refresh"
	{
		"ControlName"		"Button"
		"fieldName"		"Refresh"
		"xpos"		"270"
		"ypos"		"214"
		"wide"		"80"
		"tall"		"24"
		"autoResize"		"0"
		"pinCorner"		"0"
		"visible"		"1"
		"enabled"		"1"
		"tabPosition"		"4"
		"labelText"		"#ServerBrowser_Refresh"
		"textAlignment"		"west"
		"dulltext"		"0"
		"brighttext"		"0"
		"Default"		"0"
	}
	"InfoLabel"
	{
		"ControlName"		"Label"
		"fieldName"		"InfoLabel"
		"xpos"		"88"
		"ypos"		"182"
		"wide"		"356"
		"tall"		"24"
		"autoResize"		"0"
		"pinCorner"		"0"
		"visible"		"1"
		"enabled"		"1"
		"tabPosition"		"0"
		"textAlignment"		"west"
		"dulltext"		"0"
		"brighttext"		"0"
	}
	"AutoRetry"
	{
		"ControlName"		"Button"
		"fieldName"		"AutoRetry"
		"xpos"		"86"
		"ypos"		"214"
		"wide"		"80"
		"tall"		"24"
		"autoResize"		"0"
		"pinCorner"		"0"
		"visible"		"0"
		"enabled"		"1"
		"tabPosition"		"2"
		"labelText"		"#ServerBrowser_AutoRetry"
		"textAlignment"		"center"
		"dulltext"		"0"
		"brighttext"		"0"
		"Default"		"0"
	}
	"AutoRetryAlert"
	{
		"ControlName"		"RadioButton"
		"fieldName"		"AutoRetryAlert"
		"xpos"		"84"
		"ypos"		"248"
		"wide"		"358"
		"tall"		"24"
		"autoResize"		"0"
		"pinCorner"		"0"
		"visible"		"0"
		"enabled"		"1"
		"tabPosition"		"5"
		"labelText"		"#ServerBrowser_AlertMeWhenSlotOpens"
		"textAlignment"		"west"
		"dulltext"		"0"
		"brighttext"		"0"
		"Default"		"0"
		"SubTabPosition"		"1"
	}
	"AutoRetryJoin"
	{
		"ControlName"		"RadioButton"
		"fieldName"		"AutoRetryJoin"
		"xpos"		"84"
		"ypos"		"272"
		"wide"		"356"
		"tall"		"24"
		"autoResize"		"0"
		"pinCorner"		"0"
		"visible"		"0"
		"enabled"		"1"
		"tabPosition"		"5"
		"labelText"		"#ServerBrowser_JoinWhenSlotOpens"
		"textAlignment"		"west"
		"dulltext"		"0"
		"brighttext"		"0"
		"Default"		"0"
		"SubTabPosition"		"2"
	}
	"ServerLabel"
	{
		"ControlName"		"Label"
		"fieldName"		"ServerLabel"
		"xpos"		"8"
		"ypos"		"44"
		"wide"		"72"
		"tall"		"20"
		"autoResize"		"0"
		"pinCorner"		"0"
		"visible"		"1"
		"enabled"		"1"
		"tabPosition"		"0"
		"labelText"		"#ServerBrowser_ServerLabel"
		"textAlignment"		"east"
		"dulltext"		"0"
		"brighttext"		"0"
	}
	"GameLabel"
	{
		"ControlName"		"Label"
		"fieldName"		"GameLabel"
		"xpos"		"4"
		"ypos"		"72"
		"wide"		"76"
		"tall"		"20"
		"autoResize"		"0"
		"pinCorner"		"0"
		"visible"		"1"
		"enabled"		"1"
		"tabPosition"		"0"
		"labelText"		"#ServerBrowser_GameLabel"
		"textAlignment"		"east"
		"dulltext"		"0"
		"brighttext"		"0"
	}
	"ServerIPLabel"
	{
		"ControlName"		"Label"
		"fieldName"		"ServerIPLabel"
		"xpos"		"8"
		"ypos"		"100"
		"wide"		"72"
		"tall"		"20"
		"autoResize"		"0"
		"pinCorner"		"0"
		"visible"		"1"
		"enabled"		"1"
		"tabPosition"		"0"
		"labelText"		"#ServerBrowser_IPAddressLabel"
		"textAlignment"		"east"
		"dulltext"		"0"
		"brighttext"		"0"
	}
	"MapLabel"
	{
		"ControlName"		"Label"
		"fieldName"		"MapLabel"
		"xpos"		"12"
		"ypos"		"128"
		"wide"		"68"
		"tall"		"20"
		"autoResize"		"0"
		"pinCorner"		"0"
		"visible"		"1"
		"enabled"		"1"
		"tabPosition"		"0"
		"labelText"		"#ServerBrowser_MapLabel"
		"textAlignment"		"east"
		"dulltext"		"0"
		"brighttext"		"0"
	}
	"PlayersLabel"
	{
		"ControlName"		"Label"
		"fieldName"		"PlayersLabel"
		"xpos"		"12"
		"ypos"		"156"
		"wide"		"68"
		"tall"		"20"
		"autoResize"		"0"
		"pinCorner"		"0"
		"visible"		"1"
		"enabled"		"1"
		"tabPosition"		"0"
		"labelText"		"#ServerBrowser_PlayersLabel"
		"textAlignment"		"east"
		"dulltext"		"0"
		"brighttext"		"0"
	}
	"PingLabel"
	{
		"ControlName"		"Label"
		"fieldName"		"PingLabel"
		"xpos"		"166"
		"ypos"		"156"
		"wide"		"62"
		"tall"		"20"
		"autoResize"		"0"
		"pinCorner"		"0"
		"visible"		"1"
		"enabled"		"1"
		"tabPosition"		"0"
		"labelText"		"#ServerBrowser_LatencyLabel"
		"textAlignment"		"east"
		"dulltext"		"0"
		"brighttext"		"0"
	}
	"ServerText"
	{
		"ControlName"		"TextEntry"
		"fieldName"		"ServerText"
		"xpos"		"88"
		"ypos"		"44"
		"wide"		"352"
		"tall"		"20"
		"autoResize"		"0"
		"pinCorner"		"0"
		"visible"		"1"
		"enabled"		"0"
		"tabPosition"		"0"
		"textHidden"		"0"
		"editable"		"0"
		"maxchars"		"-1"
		"NumericInputOnly"		"0"
	}
	"GameText"
	{
		"ControlName"		"TextEntry"
		"fieldName"		"GameText"
		"xpos"		"88"
		"ypos"		"72"
		"wide"		"352"
		"tall"		"20"
		"autoResize"		"0"
		"pinCorner"		"0"
		"visible"		"1"
		"enabled"		"0"
		"tabPosition"		"0"
		"textHidden"		"0"
		"editable"		"0"
		"maxchars"		"-1"
		"NumericInputOnly"		"0"
	}
	"ServerIPText"
	{
		"ControlName"		"TextEntry"
		"fieldName"		"ServerIPText"
		"xpos"		"88"
		"ypos"		"100"
		"wide"		"352"
		"tall"		"20"
		"autoResize"		"0"
		"pinCorner"		"0"
		"visible"		"1"
		"enabled"		"0"
		"tabPosition"		"0"
		"textHidden"		"0"
		"editable"		"0"
		"maxchars"		"-1"
		"NumericInputOnly"		"0"
	}
	"MapText"
	{
		"ControlName"		"TextEntry"
		"fieldName"		"MapText"
		"xpos"		"88"
		"ypos"		"128"
		"wide"		"352"
		"tall"		"20"
		"autoResize"		"0"
		"pinCorner"		"0"
		"visible"		"1"
		"enabled"		"0"
		"tabPosition"		"0"
		"textHidden"		"0"
		"editable"		"0"
		"maxchars"		"-1"
		"NumericInputOnly"		"0"
	}
	"PlayersText"
	{
		"ControlName"		"TextEntry"
		"fieldName"		"PlayersText"
		"xpos"		"88"
		"ypos"		"156"
		"wide"		"72"
		"tall"		"20"
		"autoResize"		"0"
		"pinCorner"		"0"
		"visible"		"1"
		"enabled"		"0"
		"tabPosition"		"0"
		"textHidden"		"0"
		"editable"		"0"
		"maxchars"		"-1"
		"NumericInputOnly"		"0"
	}
	"PingText"
	{
		"ControlName"		"TextEntry"
		"fieldName"		"PingText"
		"xpos"		"234"
		"ypos"		"156"
		"wide"		"72"
		"tall"		"20"
		"autoResize"		"0"
		"pinCorner"		"0"
		"visible"		"1"
		"enabled"		"0"
		"tabPosition"		"0"
		"textHidden"		"0"
		"editable"		"0"
		"maxchars"		"-1"
		"NumericInputOnly"		"0"
	}
}
