"VertexLitGeneric"
{
	// Original shader: VertexLitMaskedEnvMappedTexture
	"$basetexture" "models/headcrab/M6CL"
	"$envmap" "models/headcrab/HC_env"
	"$envmapmask" "models/headcrab/M6CLmask"
	"$envmapsphere" 1
}
