"VertexLitGeneric"
{
	// Original shader: VertexLitMaskedEnvMappedTexture
	"$basetexture" "models/Antlion/abdomen"
	"$envmapmask" "models/Antlion/abdomen_m"
	"$envmap" "models/Antlion/antlion_env"
	"$envmapsphere" 1
	"$surfaceprop" "flesh"
}
