"VertexLitGeneric"
{
	"$basetexture" "models/Antlion/antlion_sheet"
//	"$envmapmask" "models/Antlion/abdomen_m"
//	"$alphaenvmapmask" 1
//	"$envmap" "models/Antlion/antlion_env"
//	"$envmapsphere" 1
	"$surfaceprop" "flesh"
}
