"LightmappedGeneric"
{
	"$basetexture" "Brick/brickwall034g"
	"$surfaceprop" "brick"
	"%keywords" "c17downtown"
	"$bumpmap" "brick/brickwall034g_normal"
	"$normalmapalphaenvmapmask" 1
	"$envmapcontrast" 1
	"$envmapsaturation" 1
	"$envmaptint" "[ .5 .5 .5]"
	"$envmap" "env_cubemap"
}
