"LightmappedGeneric"
{
	"$basetexture" "Brick/brickwall014e"
	"$surfaceprop" "brick"
	"%keywords" "c17downtown"
	"$bumpmap" "brick/brickwall014e_normal"
	"$normalmapalphaenvmapmask" 1
	"$envmapcontrast" 1
	"$envmapsaturation" 1
	"$envmaptint" "[ .9 .9 .9]"
	"$envmap" "env_cubemap"
}
