"LightmappedGeneric"
{
	"$basetexture" "Brick/brickwall054g"
	"$surfaceprop" "glass"
	"$envmap" "env_cubemap"
	"%keywords" "c17downtown"
	"$envmapmask" "Brick/brickwall054g_mask"
	"$translucent" 1
}
