"VertexLitGeneric"
{
	// Original shader: VertexLitMaskedEnvMappedTexture
	"$basetexture" "models/Combine_Guard/guardgun_uvw"
//	"$envmapmask" "models/Combine_Guard/guardgun_uvw_m"
//	"$envmap" "models/Combine_Guard/combineguard_envmap"
//	"$envmap" "env_cubemap"
//	"$envmapsphere" 1
	"$selfillum" 1
	"$multipass" 1
}
