"VertexLitGeneric"
{
	"$basetexture" "models/Citizen/City/arm_cyl"
	"$bumpmap" "models/Citizen/City/arm_normal"
//	"$envmap" "env_cubemap"
//	"$envmaptint" "[0.3 0.3 0.3"
	"$normalmapalphaenvmapmask" 1
	"$model" 1
//	"$envmapcameraspace" "1"
}