"Resource/UI/BottomSpectatorGUI.res"
{
	"bottombar"
	{
		"ControlName"		"EditablePanel"
		"fieldName"		"bottombar"
		"xpos"		"0"
		"ypos"		"0"
		"wide"		"640"
		"tall"		"40"
		"autoResize"		"0"
		"pinCorner"		"0"
		"visible"		"1"
		"enabled"		"0"
		"tabPosition"		"0"
	}
	"playercombo"
	{
		"ControlName"		"ComboBox"
		"fieldName"		"playercombo"
		"xpos"		"240"
		"ypos"		"5"
		"wide"		"150"
		"tall"		"24"
		"autoResize"		"0"
		"pinCorner"		"0"
		"visible"		"1"
		"enabled"		"1"
		"tabPosition"		"1"
		"textHidden"		"0"
		"editable"		"0"
		"maxchars"		"-1"
		"NumericInputOnly"		"0"
	}
	"viewcombo"
	{
		"ControlName"		"ComboBox"
		"fieldName"		"viewcombo"
		"xpos"		"470"
		"ypos"		"5"
		"wide"		"150"
		"tall"		"24"
		"autoResize"		"0"
		"pinCorner"		"0"
		"visible"		"1"
		"enabled"		"1"
		"tabPosition"		"1"
		"textHidden"		"0"
		"editable"		"0"
		"maxchars"		"-1"
		"NumericInputOnly"		"0"
	}
	"settingscombo"
	{
		"ControlName"		"ComboBox"
		"fieldName"		"settingscombo"
		"xpos"		"20"
		"ypos"		"5"
		"wide"		"150"
		"tall"		"24"
		"autoResize"		"0"
		"pinCorner"		"0"
		"visible"		"1"
		"enabled"		"1"
		"tabPosition"		"1"
		"textHidden"		"0"
		"editable"		"0"
		"maxchars"		"-1"
		"NumericInputOnly"		"0"
	}
	
	"playerprev"
	{
		"ControlName"		"Button"
		"fieldName"		"playerprev"
		"xpos"		"210"
		"ypos"		"5"
		"wide"		"24"
		"tall"		"24"
		"autoResize"		"0"
		"pinCorner"		"0"
		"visible"		"1"
		"enabled"		"1"
		"tabPosition"		"1"
		"textHidden"		"0"
		"command"		"playerprev"
	}

	"playernext"
	{
		"ControlName"		"Button"
		"fieldName"		"playernext"
		"xpos"		"400"
		"ypos"		"5"
		"wide"		"24"
		"tall"		"24"
		"autoResize"		"0"
		"pinCorner"		"0"
		"visible"		"1"
		"enabled"		"1"
		"tabPosition"		"1"
		"textHidden"		"0"
		"command"		"playernext"
	}

}
