"Resource/UI/TeamMenu.res"
{
	"TeamMenu"
	{
		"ControlName"		"Frame"
		"fieldName"		"TeamMenu"
		"xpos"		"50"
		"ypos"		"10"
		"wide"		"552"
		"tall"		"448"
		"autoResize"		"0"
		"pinCorner"		"0"
		"visible"		"1"
		"enabled"		"1"
		"tabPosition"		"0"
	}
	"SysMenu"
	{
		"ControlName"		"Menu"
		"fieldName"		"SysMenu"
		"xpos"		"0"
		"ypos"		"0"
		"wide"		"64"
		"tall"		"24"
		"autoResize"		"0"
		"pinCorner"		"0"
		"visible"		"0"
		"enabled"		"0"
		"tabPosition"		"0"
	}
	"MapInfo"
	{
		"ControlName"		"HTML"
		"fieldName"		"MapInfo"
		"xpos"		"100"
		"ypos"		"34"
		"wide"		"450"
		"tall"		"365"
		"autoResize"		"3"
		"pinCorner"		"0"
		"visible"		"1"
		"enabled"		"1"
		"tabPosition"		"0"
	}

	"mapname"
	{
		"ControlName"		"Label"
		"fieldName"		"mapname"
		"xpos"		"10"
		"ypos"		"50"
		"wide"		"90"
		"tall"		"24"
		"autoResize"	"0"
		"pinCorner"		"0"
		"visible"		"1"
		"enabled"		"1"
		"labelText"		""
		"textAlignment"		"west"
		"dulltext"		"0"
		"brighttext"	"1"
	}

	
	"teambutton0"
	{
		"ControlName"		"Button"
		"fieldName"		"teambutton0"
		"xpos"		"12"
		"ypos"		"100"
		"wide"		"70"
		"tall"		"30"
		"autoResize"		"0"
		"pinCorner"		"2"
		"visible"		"1"
		"enabled"		"1"
		"tabPosition"		"0"
		"labelText"		""
		"textAlignment"		"center"
		"dulltext"		"0"
		"brighttext"		"0"
	}

	"teambutton1"
	{
		"ControlName"		"Button"
		"fieldName"		"teambutton1"
		"xpos"		"12"
		"ypos"		"150"
		"wide"		"70"
		"tall"		"30"
		"autoResize"		"0"
		"pinCorner"		"2"
		"visible"		"1"
		"enabled"		"1"
		"tabPosition"		"0"
		"labelText"		""
		"textAlignment"		"center"
		"dulltext"		"0"
		"brighttext"		"0"
	}

	"teambutton2"
	{
		"ControlName"		"Button"
		"fieldName"		"teambutton2"
		"xpos"		"12"
		"ypos"		"200"
		"wide"		"70"
		"tall"		"30"
		"autoResize"		"0"
		"pinCorner"		"2"
		"visible"		"1"
		"enabled"		"1"
		"tabPosition"		"0"
		"labelText"		""
		"textAlignment"		"center"
		"dulltext"		"0"
		"brighttext"		"0"
	}
	
	"teambutton3"
	{
		"ControlName"		"Button"
		"fieldName"		"teambutton3"
		"xpos"		"12"
		"ypos"		"250"
		"wide"		"70"
		"tall"		"30"
		"autoResize"		"0"
		"pinCorner"		"2"
		"visible"		"1"
		"enabled"		"1"
		"tabPosition"		"0"
		"labelText"		""
		"textAlignment"		"center"
		"dulltext"		"0"
		"brighttext"		"0"
	}
	
	"teambutton4"
	{
		"ControlName"		"Button"
		"fieldName"		"teambutton4"
		"xpos"		"12"
		"ypos"		"300"
		"wide"		"70"
		"tall"		"30"
		"autoResize"		"0"
		"pinCorner"		"2"
		"visible"		"1"
		"enabled"		"1"
		"tabPosition"		"0"
		"labelText"		""
		"textAlignment"		"center"
		"dulltext"		"0"
		"brighttext"		"0"
	}
}
