"Resource/UI/ClassMenu.res"
{
	"ClassMenu"
	{
		"ControlName"		"Frame"
		"fieldName"		"ClassMenu"
		"xpos"		"180"
		"ypos"		"135"
		"wide"		"400"
		"tall"		"210"
		"autoResize"		"0"
		"pinCorner"		"0"
		"visible"		"1"
		"enabled"		"1"
		"tabPosition"		"0"
	}
	
	"ClassMenuImage"
	{
		"ControlName"		"ImagePanel"
		"fieldName"		"classmenuimage"
		"xpos"		"0"
		"ypos"		"0"
		"wide"		"400"
		"tall"		"210"
		"autoResize"		"0"
		"pinCorner"		"0"
		"visible"		"1"
		"enabled"		"1"
		"tabPosition"		"0"
		"image"		"TF2Selections/selectionmenus"
		"scaleImage"		"1"
	}
	
	"SysMenu"
	{
		"ControlName"		"Menu"
		"fieldName"		"SysMenu"
		"xpos"			"0"
		"ypos"			"0"
		"wide"			"64"
		"tall"			"24"
		"autoResize"		"0"
		"pinCorner"		"0"
		"visible"		"0"
		"enabled"		"0"
		"tabPosition"		"0"
	}

	"joinClass"
	{
		"ControlName"		"Label"
		"fieldName"		"joinClass"
		"xpos"		"0"
		"ypos"		"20"
		"wide"		"400"
		"tall"		"30"
		"autoResize"		"0"
		"pinCorner"		"0"
		"visible"		"1"
		"enabled"		"1"
		"labelText"		"SELECT YOUR CLASS"
		"textAlignment"		"center"
		"paintbackground"	"0"
		"dulltext"		"0"
		"brighttext"		"1"
	}
	
	"ClassInfo"
	{
		"ControlName"		"Panel"
		"fieldName"		"ClassInfo"
		//i'm really funny - Mine
		"xpos"			"-6969"
		"ypos"			"-6969"
		"wide"			"400"
		"tall"			"380"
		"autoResize"		"3"
		"pinCorner"		"0"
		"visible"		"0"
		"enabled"		"0"
		"tabPosition"		"0"
	}
	
	"commando"
	{
		"ControlName"		"MouseOverPanelButton"
		"fieldName"		"commando"
		"xpos"		"55"
		"ypos"		"85"
		"wide"		"90"
		"tall"		"20"
		"autoResize"		"1"
		"pinCorner"		"2"
		"visible"		"1"
		"enabled"		"1"
		"tabPosition"		"1"
		"labelText"		"COMMANDO   "
		"textAlignment"		"center"
		"dulltext"		"0"
		"brighttext"		"1"
		"command"		"changeclass_commando"
	}
	
	"defender"
	{
		"ControlName"		"MouseOverPanelButton"
		"fieldName"		"defender"
		"xpos"		"55"
		"ypos"		"110"
		"wide"		"90"
		"tall"		"20"
		"autoResize"		"0"
		"pinCorner"		"2"
		"visible"		"1"
		"enabled"		"1"
		"tabPosition"		"0"
		"labelText"		"DEFENDER   "
		"textAlignment"		"center"
		"dulltext"		"0"
		"brighttext"		"1"
		"command"		"changeclass_defender"
	}	
	
	"escort"
	{
		"ControlName"		"MouseOverPanelButton"
		"fieldName"		"escort"
		"xpos"			"0"
		"ypos"			"180"
		"wide"			"148"
		"tall"			"20"
		"autoResize"		"0"
		"pinCorner"		"2"
		"visible"		"0"
		"enabled"		"0"
		"tabPosition"		"0"
		"labelText"		"    ESCORT"
		"textAlignment"		"center"
		"dulltext"		"0"
		"brighttext"		"1"
		"command"		"changeclass_escort"
	}	
	
	"medic"
	{
		"ControlName"		"MouseOverPanelButton"
		"fieldName"		"medic"
		"xpos"		"155"
		"ypos"		"85"
		"wide"		"90"
		"tall"		"20"
		"autoResize"		"0"
		"pinCorner"		"2"
		"visible"		"1"
		"enabled"		"1"
		"tabPosition"		"0"
		"textAlignment"		"center"
		"dulltext"		"0"
		"brighttext"		"1"
		"command"		"changeclass_medic"
		"labelText"		"MEDIC   "
	}
	
	"pyro"
	{
		"ControlName"		"MouseOverPanelButton"
		"fieldName"		"pyro"
		"xpos"		"255"
		"ypos"		"85"
		"wide"		"90"
		"tall"		"20"
		"autoResize"		"0"
		"pinCorner"		"2"
		"visible"		"1"
		"enabled"		"1"
		"tabPosition"		"0"
		"textAlignment"		"center"
		"dulltext"		"0"
		"brighttext"		"1"
		"command"		"changeclass_pyro"
		"labelText"		"PYRO   "
	}

	"sapper"
	{
		"ControlName"		"MouseOverPanelButton"
		"fieldName"		"sapper"
		"xpos"		"255"
		"ypos"		"110"
		"wide"		"90"
		"tall"		"20"
		"autoResize"		"0"
		"pinCorner"		"2"
		"visible"		"1"
		"enabled"		"1"
		"tabPosition"		"0"
		"textAlignment"		"center"
		"dulltext"		"0"
		"brighttext"		"1"
		"command"		"changeclass_sapper"
		"labelText"		"TECHNICIAN   "
		"Default"		"1"
	}
	
	"CancelButton"
	{
		"ControlName"		"Button"
		"fieldName"		"CancelButton"
		"xpos"		"155"
		"ypos"		"150"
		"wide"		"90"
		"tall"		"20"
		"autoResize"		"0"
		"pinCorner"		"2"
		"visible"		"1"
		"enabled"		"1"
		"tabPosition"		"0"
		"labelText"		"CANCEL   "
		"textAlignment"		"center"
		"dulltext"		"0"
		"brighttext"		"1"
		"Command"		"turnoff"
	}
}
