"LightmappedGeneric"
{
	// Original shader: DecalBaseTimesLightmapAlphaBlend
	"$translucent" 1
	"$basetexture" "Decals/decalIndustrialnumber06a"
	"$decal" 1
	"$decalscale" 0.25
	"%keywords" "debris"
}
