"LightmappedGeneric"
{
	// Original shader: DecalBaseTimesLightmapAlphaBlend
	"$translucent" 1
	"$basetexture" "Decals/decalIndustrialnumber02a"
	"$decal" 1
	"$decalscale" 0.5
	"%keywords" "debris"
}
