"LightmappedGeneric"
{
	// Original shader: DecalBaseTimesLightmapAlphaBlend
	"$translucent" 1
	"$basetexture" "Decals/decalmetalhatch008a"
	"$decal" 1
	"$decalscale" 0.25
	"%keywords" "airexchange,borealis"
}
