"LightmappedGeneric"
{
	// Original shader: DecalBaseTimesLightmapAlphaBlend
	"$translucent" 1
	"$basetexture" "Decals/decalmetalhatch013a"
	"$decal" 1
	"$decalscale" 0.25
	"%keywords" "borealis"
}
