"LightmappedGeneric"
{
	// Original shader: DecalBaseTimesLightmapAlphaBlend
	"$translucent" 1
	"$basetexture" "Decals/decal_signfire002a"
	"$decal" 1
	"$decalscale" 0.125
	"%keywords" "borealis"
}
