"DecalModulate"
{
	// Original shader: DecalBaseTimesLightmapAlphaBlend
	"$translucent" 1
	"$basetexture" "Decals/Blood5"
	"$decal" 1
	"$decalscale" 0.25
	"$modelmaterial" "decals/Blood5Model"
}
