"LightmappedGeneric"
{
	// Original shader: DecalBaseTimesLightmapAlphaBlend
	"$translucent" 1
	"$basetexture" "props/metalsign001f"
	"$decal" 1
	"$decalscale" 0.5
	"%keywords" "c17downtown,wasteland"
}
