"UnlitGeneric"
{
	"%tooltexture" "Decals/decalwastelandpuddle001a"
	"$envmap" "environment maps/borealis_003"
	"$envmapmask" "decals/decalborealispuddlemask001a"
	"$vertexcolor" 1
	"$vertexalpha" 1
	"$decal" 1
	"$decalscale" 0.2

	// Negative fade duration means to fade in, not out
	"$decalfadeduration" -2.00
	"$decalfadetime" 0.00
}