"LightmappedGeneric"
{
	// Original shader: DecalBaseTimesLightmapAlphaBlend
	"$translucent" 1
	"$basetexture" "Decals/decalplaster003d"
	"$decal" 1
	"$decalscale" 0.25
	"%keywords" "c17downtown,wasteland"
}
