"LightmappedGeneric"
{
	// Original shader: DecalBaseTimesLightmapAlphaBlend
	"$translucent" 1
	"$basetexture" "Decals/decalmetalvent002a"
	"$decal" 1
	"$decalscale" 0.25
	"%keywords" "airexchange,c17industrial"
}
