"LightmappedGeneric"
{
	// Original shader: DecalBaseTimesLightmapAlphaBlend
	"$translucent" 1
	"$basetexture" "Decals/decalshipsign003f"
	"$decal" 1
	"$decalscale" 0.125
	"%keywords" "borealis"
}
