"LightmappedGeneric"
{
	// Original shader: DecalBaseTimesLightmapAlphaBlend
	"$translucent" 1
	"$basetexture" "Decals/decal_borealis001a"
	"$decal" 1
	"$decalscale" 1
	"%keywords" "borealis"
}
