"LightmappedGeneric"
{
	// Original shader: DecalBaseTimesLightmapAlphaBlend
	"$translucent" 1
	"$basetexture" "Decals/decalIndustrialnumber08a"
	"$decal" 1
	"$decalscale" 1
	"%keywords" "debris"
}
