"LightmappedGeneric"
{
	// Original shader: DecalBaseTimesLightmapAlphaBlend
	"$translucent" 1
	"$basetexture" "props/signstreet009a"
	"$decal" 1
	"$decalscale" 0.25
	"%keywords" "c17downtown"
}