"LightmappedGeneric"
{
	// Original shader: DecalBaseTimesLightmapAlphaBlend
	"$basetexture" "Decals/extinguish2"
	"$translucent" 1
	"$vertexcolor" 1
	"$vertexalpha" 1
	"$decal" 1
	"$decalscale" 0.25
	"$decalfadeduration" 6.00
	"$decalfadetime" 0.00
}
