"DecalModulate"
{
	// Original shader: DecalBaseTimesLightmapAlphaBlend
//	"$translucent" 1
	"$basetexture" "Decals/Yblood3"
	"$decal" 1
	"$decalscale" .25
	"$modelmaterial" "decals/YBlood3Model"
}
