"VertexLitGeneric"
{
	// Original shader: VertexLitMaskedEnvMappedTexture
	"$basetexture" "models/Alyx/alyx_faceandhair"
	"$envmapmask" "models/Alyx/alyx_faceandhair_m"
	"$envmap" "models/Alyx/alyxenv"
	"$envmapsphere" 1
}
