"LightmappedGeneric"
{
	"$basetexture" "tile/tileroof002b"
	"$surfaceprop" "tile"
	"%keywords" "c17downtown"
	"$bumpmap" "tile/tileroof003b_normal"
	"$envmap" "env_cubemap"
	"$normalmapalphaenvmapmask" 1
	"$envmapcontrast" 1
	"$envmapsaturation" 1
	"$envmaptint" "[ .85 .85 .85]"
}
