"VertexLitGeneric"
{
	"$basetexture" "Models/props_lab/Tank001"
	"$surfaceprop" "metal"
	"$selfillum" 1
	"$envmap" "env_cubemap"
	"$envmapmask" "Models/props_lab/Tank001_mask"
//	"$envmaptint" "[ .5 .5 .5]"
	"$envmapcontrast" "1"


	
}
