"LightmappedGeneric"
{
	"$basetexture" "Plaster/plasterwall013d"
	"$surfaceprop" "plaster"
	"%keywords" "c17downtown"
	"$envmap" "env_cubemap"
	"$basealphaenvmapmask" 1
	"$envmapcontrast" 1
	"$envmapsaturation" 1
	"$envmaptint" "[ .5 .5 .5]"
}
