"LightmappedGeneric"
{
	// Original shader: BaseTimesLightmap
	"$basetexture" "Plaster/plasterwall028j"
	"$envmap" "env_cubemap"
	"$basealphaenvmapmask" 1
	"$surfaceprop" "plaster"
	"%keywords" "c17downtown"
	"$envmaptint" "[.5 .5 .5]"
}
