"VertexLitGeneric"
{
	// Original shader: VertexLitSelfIlluminatedTexture
	"$basetexture" "models/manhack/grenade003"
	"$selfillum" 1
	"Proxies"
	{
		"Sine"
		{
			"resultVar" "$selfIllumTint"
			"sinemin" 0.80
			"sinemax" 1.00
			"sineperiod" 0.30
		}
	}
}
