"LightmappedGeneric"
{
	// Original shader: CubicEnvMapBlendMaskedBaseTimesLightmap
	"$basealphaenvmapmask" 1
	"$basetexture" "Stone/marblewall007c"
	"$envmap" "env_cubemap"
	"$surfaceprop" "concrete"
	"%keywords" "c17skyscraper"
}
