"LightmappedGeneric"
{
	// Original shader: CubicEnvMapBlendMaskedBaseTimesLightmap
	"$basealphaenvmapmask" 1
	"$basetexture" "Stone/stonewall033b"
	"$envmap" "env_cubemap"
	"$surfaceprop" "concrete"
	"%keywords" "c17downtown"
}
