"LightmappedGeneric"
{
	"$basetexture" "Stone/stonewall021d"
	"$surfaceprop" "glass"
	"$envmaptint" "[ 0.5 0.5 0.5 ]"
	"$envmap" "env_cubemap"
	"%keywords" "c17downtown"
	"$envmapmask" "Stone/stonewall021d_mask"
	"$translucent" 1
}