"LightmappedGeneric"
{
	"$basetexture" "Stone/stonewall027c"
	"$surfaceprop" "concrete"
	"$bumpmap" "stone/stonewall027c_normal"
	"%keywords" "c17downtown"
	"$envmap" "env_cubemap"
	"$normalmapalphaenvmapmask" 1
	"$envmapcontrast" 1
	"$envmapsaturation" 1
	"$envmaptint" "[ .5 .5 .5]"
}
