"LightmappedGeneric"
{
	"$basetexture" "concrete\concretefloor033k"
	"$surfaceprop" "concrete"
	"%keywords" "c17downtown"
	"$envmap" "env_cubemap"
	"$bumpmap" "concrete\concretefloor033k_normal"
	"$envmapsaturation" 1
	"$envmapcontrast" 1
	"$envmaptint" "[ .5 .5 .5]"
	//"$fresnelreflection" 0.25
}
