"VertexLitGeneric"
{
	// Original shader: ModelTextureWithSelfIllumWithMaskedEnvMap
	"$envmapsphere" 1
	"$selfillum" 1
	"$basetexture" "models/obsolete/TBot1/BallEye"
	"$envmapmask" "models/obsolete/TBot1/BallEye_Mask"
	"$envmap" "models/obsolete/TBot1/TBot_envmap"
	"$multipass" 1
}
