"VertexLitGeneric"
{
	// Original shader: VertexLitMaskedEnvMappedTexture
	"$basetexture" "models/obsolete/TBot1/GunBarrell"
	"$envmapmask" "models/obsolete/TBot1/GunBarrell_Mask"
	"$envmap" "models/obsolete/TBot1/TBot_envmap"
	"$envmapsphere" 1
	"$multipass" 1
}
