"VertexLitGeneric"
{
	// Original shader: VertexLitTexture
	"$basetexture" "models/zombie_Assassin/hcb_arm2"
	"$bumpmap" "models/zombie_Assassin/hcb_arm_normal"
//	"$envmap" "environment maps/specular"
	"$envmap" "env_cubemap"
	"$envmaptint" "[.9 .9 .9]"
	"$envmapsaturation" .75
	"$envmapcontrast" 1
}
