"LightmappedGeneric"
{
	// Original shader: SphericalEnvMapBlendMaskedBaseTimesLightmap
	"$basetexture" "Wood/wooddoor005a"

// Uncomment these if you add an alpha channel to the base texture
//	"$basealphaenvmapmask" 1
//	"$envmapsphere" 1
//	"$envmap" "env_cubemap"

	"$surfaceprop" "wood"
	"%keywords" "c17downtown"
}
