"LightmappedGeneric"
{
	"$basetexture" "Storefront_Template/Storefront_Template001b"
	"$surfaceprop" "concrete"
	"$bumpmap" "Storefront_Template/Storefront_Template001b_normal"
	"$envmap" "env_cubemap"
	"$normalmapalphaenvmapmask" 1
	"$envmapcontrast" 1
	"$envmapsaturation" 1
	"$envmaptint" "[ .5 .5 .5]"
}
