//
// TRACKER SCHEME RESOURCE FILE
//
// sections:
//		colors			- all the colors used by the scheme
//		basesettings	- contains settings for app to use to draw controls
//		fonts			- list of all the fonts used by app
//		borders			- description of all the borders
//CSS
// notes:
// 		hit ctrl-alt-shift-R in the app to reload this file
//
Scheme
{
	//Name - currently overriden in code
	//{
	//	"Name"	"ClientScheme"
	//}

	//////////////////////// COLORS ///////////////////////////
	Colors
	{

		// base colors
		"BaseText"			"204 112 0 255"	// used in text windows, lists
		"BrightBaseText"		"204 112 0 255"	// brightest text
		"SelectedText"		"255 176 0 255"	// selected text
		"DimBaseText"		"255 176 0 255"	// dim base text
		"LabelDimText"		"255 176 0 164"	// used for info text
		"ControlText"		"255 176 0 255"	// used in all text controls
		"BrightControlText"	"255 176 0 255"	// use for selected controls
		"DisabledText1"		"80 48 0 255"	// disabled text
		"DisabledText2"		"0 0 0 0"		// overlay color for disabled text (to give that inset look)
		"DimListText"		"188 112 0 255"	// offline friends, unsubscribed games, etc.

		// background colors
			"FgColor"			"204 112 0 100"
		"BgColor"			"0 0 0 76"
		
		"BrightFg"		"204 112 0 255"
		"DamagedBg"			"180 0 0 200"
		"DamagedFg"			"180 0 0 230"
		"BrightDamagedFg"		"255 0 0 255"

		// weapon selection colors
		"SelectionNumberFg"		"204 112 0 255"
		"SelectionTextFg"		"204 112 0 255"
		"SelectionEmptyBoxBg" 	"0 0 0 80"
		"SelectionBoxBg" 		"0 0 0 80"
		"SelectionSelectedBoxBg" "0 0 0 80"
		
		"ZoomReticleColor"	"204 112 0 88"


		// titlebar colors
		"TitleText"			"255 174 0 255"
		"TitleDimText"		"255 174 0 255"
		"TitleBG"			"255 255 0 0"
		"TitleDimBG"		"255 255 0 0"
		
		// slider tick colors
		"SliderTickColor"		"127 140 127 255"
		"SliderTrackColor"	"31 31 31 255"

		// border colors
		"BorderBright"		"188 112 0 128"	// the lit side of a control
		"BorderDark"		"188 112 0 128"	// the dark/unlit side of a control
		"BorderSelection"		"188 112 0 0"	// the additional border color for displaying the default/selected button

		"team0"			"204 204 204 255" // Spectators
		"team1"			"255 64 64 255" // CT's
		"team2"			"153 204 255 255" // T's

		"MapDescriptionText"	"255 176 0 255" // the text used in the map description window
	}

	///////////////////// BASE SETTINGS ////////////////////////
	// default settings for all panels
	// controls use these to determine their settings
	BaseSettings
	{
		"FgColor"			"ControlText"
		"BgColor"			"ControlBG"
		"LabelBgColor"		"ControlBG"
		"SubPanelBgColor"	"ControlBG"

		"DisabledFgColor1"		"DisabledText1" 
		"DisabledFgColor2"		"DisabledText2"			// set this to the BgColor if you don't want it to draw

		"TitleBarFgColor"			"TitleText"
		"TitleBarDisabledFgColor"	"TitleDimText"
		"TitleBarBgColor"			"TitleBG"
		"TitleBarDisabledBgColor"	"TitleDimBG"

		"TitleBarIcon"				"resource/icon_steam"
		"TitleBarDisabledIcon"		"resource/icon_steam_disabled"

		"TitleButtonFgColor"			"BorderBright"
		"TitleButtonBgColor"			"ControlBG"
		"TitleButtonDisabledFgColor"	"TitleDimText"
		"TitleButtonDisabledBgColor"	"TitleDimBG"

		"TextCursorColor"			"BaseText"			// color of the blinking text cursor in text entries
		"URLTextColor"				"BrightBaseText"	// color that URL's show up in chat window

		Menu
		{
			"FgColor"			"DimBaseText"
			"BgColor"			"ControlBG"
			"ArmedFgColor"		"BrightBaseText"
			"ArmedBgColor"		"SelectionBG"
			"DividerColor"		"BorderDark"
			"TextInset"			"6"
		}

		MenuButton	  // the little arrow on the side of boxes that triggers drop down menus
		{
			"ButtonArrowColor"	"DimBaseText"		// color of arrows
		   	"ButtonBgColor"		"WindowBG"			// bg color of button. same as background color of text edit panes 
			"ArmedArrowColor"	"BrightBaseText"	// color of arrow when mouse is over button
			"ArmedBgColor"		"DimBaseText"		// bg color of button when mouse is over button
		}

		Slider
		{
			"SliderFgColor"		"ControlBG"			// handle with which the slider is grabbed
			"SliderBgColor"		"ControlDarkBG"		// area behind handle
		}

		ScrollBarSlider
		{
			"BgColor"					"ControlBG"		// this isn't really used
			"ScrollBarSliderFgColor"	"ControlBG"		// handle with which the slider is grabbed
			"ScrollBarSliderBgColor"	"ControlDarkBG"	// area behind handle
			"ButtonFgColor"				"DimBaseText"	// color of arrows
		}


		// text edit windows
		"WindowFgColor"				"BaseText"		// off-white
		"WindowBgColor"				"WindowBG"		// redundant. can we get rid of WindowBgColor and just use WindowBG?
		"WindowDisabledFgColor"		"DimBaseText"
		"WindowDisabledBgColor"		"ListBG"		// background of chat conversation
		"SelectionFgColor"			"SelectedText"	// fg color of selected text
		"SelectionBgColor"			"SelectionBG"
		"ListSelectionFgColor"		"SelectedText"
		"ListBgColor"				"ListBG"		// background of server browser control, etc
		"BuddyListBgColor"			"ListBG"		// background of buddy list pane
		
		// App-specific stuff
		"ChatBgColor"				"WindowBG"

		// status selection
		"StatusSelectFgColor"		"BrightBaseText"
		"StatusSelectFgColor2"		"BrightControlText"	// this is the color of the friends status

		// checkboxes
		"CheckButtonBorder1"   		"BorderDark"		// the left checkbutton border
		"CheckButtonBorder2"   		"BorderBright"		// the right checkbutton border
		"CheckButtonCheck"			"BrightControlText"	// color of the check itself
		"CheckBgColor"				"ListBG"

		// buttons (default fg/bg colors are used if these are not set)
//		"ButtonArmedFgColor"
		"ButtonArmedBgColor"		"SelectionBG"
//		"ButtonDepressedFgColor"	"BrightControlText"
//		"ButtonDepressedBgColor"

		// buddy buttons
		BuddyButton
		{
			"FgColor1"				"ControlText"
			"FgColor2"				"DimListText"
			"ArmedFgColor1"			"BrightBaseText"
			"ArmedFgColor2"			"BrightBaseText"
			"ArmedBgColor"			"SelectionBG"
		}

		Chat
		{
			"TextColor"				"BrightControlText"
			"SelfTextColor"			"BaseText"
			"SeperatorTextColor"	"DimBaseText"
		}

		"SectionTextColor"		"BrightControlText"	// text color for IN-GAME, ONLINE, OFFLINE sections of buddy list
		"SectionDividerColor"	"BorderDark"		// color of line that runs under section name in buddy list
	}

	//
	//////////////////////// FONTS /////////////////////////////
	//
	// describes all the fonts
	Fonts
	{
		// fonts are used in order that they are listed
		// fonts listed later in the order will only be used if they fulfill a range not already filled
		// if a font fails to load then the subsequent fonts will replace
		"Default"
		{
			"1"
			{
				"name"		"Verdana Bold"
				"tall"		"12"
				"weight"	"0"
				"range"		"0x0000 0x017F" //	Basic Latin, Latin-1 Supplement, Latin Extended-A
				"yres"	"480 599"
			}
			"2"
			{
				"name"		"Verdana Bold"
				"tall"		"13"
				"weight"	"0"
				"range"		"0x0000 0x017F" //	Basic Latin, Latin-1 Supplement, Latin Extended-A
				"yres"	"600 767"
			}
			"3"
			{
				"name"		"Verdana Bold"
				"tall"		"14"
				"weight"	"0"
				"range"		"0x0000 0x017F" //	Basic Latin, Latin-1 Supplement, Latin Extended-A
				"yres"	"768 1023"
				"antialias"	"1"
			}
			"4"
			{
				"name"		"Verdana Bold"
				"tall"		"20"
				"weight"	"0"
				"range"		"0x0000 0x017F" //	Basic Latin, Latin-1 Supplement, Latin Extended-A
				"yres"	"1024 1199"
				"antialias"	"1"
			}
			"5"
			{
				"name"		"Verdana Bold"
				"tall"		"24"
				"weight"	"0"
				"range"		"0x0000 0x017F" //	Basic Latin, Latin-1 Supplement, Latin Extended-A
				"yres"	"1200 6000"
				"antialias"	"1"
			}
			"6"
			{
				"name"		"Verdana"
				"tall"		"12"
				"range" 		"0x0000 0x00FF"
				"weight"		"600"
			}
			"7"
			{
				"name"		"Arial"
				"tall"		"12"
				"range" 		"0x0000 0x00FF"
				"weight"		"800"
			}

			
		}
		"DefaultUnderline"
		{
			"1"
			{
				"name"		"Tahoma"
				"tall"		"12"
				"weight"	"500"
				"underline" "1"
				"range"		"0x0000 0x017F" //	Basic Latin, Latin-1 Supplement, Latin Extended-A
			}
			"2"
			{
				"name"		"Arial"
				"tall"		"11"
				"range" 		"0x0000 0x00FF"
				"weight"		"800"
			}
		}
		"DefaultSmall"
		{
			"1"
			{
				"name"		"Verdana"
				"tall"		"12"
				"weight"	"0"
				"range"		"0x0000 0x017F"
				"yres"	"480 599"
			}
			"2"
			{
				"name"		"Verdana"
				"tall"		"13"
				"weight"	"0"
				"range"		"0x0000 0x017F"
				"yres"	"600 767"
			}
			"3"
			{
				"name"		"Verdana"
				"tall"		"14"
				"weight"	"0"
				"range"		"0x0000 0x017F"
				"yres"	"768 1023"
				"antialias"	"1"
			}
			"4"
			{
				"name"		"Verdana"
				"tall"		"20"
				"weight"	"0"
				"range"		"0x0000 0x017F"
				"yres"	"1024 1199"
				"antialias"	"1"
			}
			"5"
			{
				"name"		"Verdana"
				"tall"		"24"
				"weight"	"0"
				"range"		"0x0000 0x017F"
				"yres"	"1200 6000"
				"antialias"	"1"
			}
			"6"
			{
				"name"		"Arial"
				"tall"		"12"
				"range" 		"0x0000 0x00FF"
				"weight"		"0"
			}
		}
		"DefaultVerySmall"
		{
			"1"
			{
				"name"		"Verdana Bold"
				"tall"		"12"
				"weight"	"0"
				"range"		"0x0000 0x017F" //	Basic Latin, Latin-1 Supplement, Latin Extended-A
				"yres"	"480 599"
			}
			"2"
			{
				"name"		"Verdana Bold"
				"tall"		"13"
				"weight"	"0"
				"range"		"0x0000 0x017F" //	Basic Latin, Latin-1 Supplement, Latin Extended-A
				"yres"	"600 767"
			}
			"3"
			{
				"name"		"Verdana Bold"
				"tall"		"14"
				"weight"	"0"
				"range"		"0x0000 0x017F" //	Basic Latin, Latin-1 Supplement, Latin Extended-A
				"yres"	"768 1023"
				"antialias"	"1"
			}
			"4"
			{
				"name"		"Verdana Bold"
				"tall"		"20"
				"weight"	"0"
				"range"		"0x0000 0x017F" //	Basic Latin, Latin-1 Supplement, Latin Extended-A
				"yres"	"1024 1199"
				"antialias"	"1"
			}
			"5"
			{
				"name"		"Verdana Bold"
				"tall"		"24"
				"weight"	"0"
				"range"		"0x0000 0x017F" //	Basic Latin, Latin-1 Supplement, Latin Extended-A
				"yres"	"1200 6000"
				"antialias"	"1"
			}
			"6"
			{
				"name"		"Verdana"
				"tall"		"12"
				"range" 		"0x0000 0x00FF"
				"weight"		"0"
			}
			"7"
			{
				"name"		"Arial"
				"tall"		"11"
				"range" 		"0x0000 0x00FF"
				"weight"		"0"
			}
		}

		HudNumbersSmall
		{
			"1"
			{
				"name"		"DIN-Regular"
				"tall"		"16"
				"weight"	"1000"
				"additive"	"1"
				"antialias" "1"
				"range"		"0x0000 0x017F"
			}
		}
		HudNumbers
		// DIN-regular will be used at low res, DIN-light at all other sizes.
		// note that these two fonts currently must have matching sizes ("tall")
		{
			"1"
			{
				"name"		"DIN-Regular"
				"tall"		"32"
				"weight"	"400"
				"antialias" "1"
				"additive"	"1"
				"yres"	"1 599"
				"range"		"0x0000 0x017F"
			}
			"2"
			{
				"name"		"DIN-Light"
				"tall"		"32"
				"weight"	"1000"
				"antialias" "1"
				"additive"	"1"
				"range"		"0x0000 0x017F"
			}
		}
		"CloseCaption_Normal"
		{
			"1"
			{
				"name"		"Tahoma"
				"tall"		"16"
				"weight"	"500"
				"range"		"0x0000 0x017F" //	Basic Latin, Latin-1 Supplement, Latin Extended-A
			}
		}
		"CloseCaption_Italic"
		{
			"1"
			{
				"name"		"Tahoma"
				"tall"		"16"
				"weight"	"500"
				"italic"	"1"
				"range"		"0x0000 0x017F" //	Basic Latin, Latin-1 Supplement, Latin Extended-A
			}
		}
		"CloseCaption_Bold"
		{
			"1"
			{
				"name"		"Tahoma"
				"tall"		"16"
				"weight"	"900"
				"range"		"0x0000 0x017F" //	Basic Latin, Latin-1 Supplement, Latin Extended-A
			}
		}
		"CloseCaption_BoldItalic"
		{
			"1"
			{
				"name"		"Tahoma"
				"tall"		"16"
				"weight"	"900"
				"italic"	"1"
				"range"		"0x0000 0x017F" //	Basic Latin, Latin-1 Supplement, Latin Extended-A
			}
		}

		// this is the symbol font
		"Marlett"
		{
			"1"
			{
				"name"		"Marlett"
				"tall"		"11"
				"weight"	"0"
				"symbol"	"1"
				"range"		"0x0000 0x007F"	//	Basic Latin
			}
		}

		"Trebuchet24"
		{
			"1"
			{
				"name"		"Trebuchet MS"
				"tall"		"24"
				"weight"	"900"
				"range"		"0x0000 0x007F"	//	Basic Latin
			}
		}


		"Trebuchet20"
		{
			"1"
			{
				"name"		"Trebuchet MS"
				"tall"		"20"
				"weight"	"900"
				"range"		"0x0000 0x007F"	//	Basic Latin
			}
		}

		"Trebuchet18"
		{
			"1"
			{
				"name"		"Trebuchet MS"
				"tall"		"18"
				"weight"	"900"
				"range"		"0x0000 0x007F"	//	Basic Latin
			}
		}
	}

	//
	//////////////////// BORDERS //////////////////////////////
	//
	// describes all the border types
	Borders
	{
		BaseBorder
		{
			"inset" "0 0 1 1"
			Left
			{
				"1"
				{
					"color" "BorderDark"
					"offset" "0 1"
				}
			}

			Right
			{
				"1"
				{
					"color" "BorderBright"
					"offset" "1 0"
				}
			}

			Top
			{
				"1"
				{
					"color" "BorderDark"
					"offset" "0 0"
				}
			}

			Bottom
			{
				"1"
				{
					"color" "BorderBright"
					"offset" "0 0"
				}
			}
		}
		
		TitleButtonBorder
		{
			"inset" "0 0 1 1"
			Left
			{
				"1"
				{
					"color" "BorderBright"
					"offset" "0 1"
				}
			}

			Right
			{
				"1"
				{
					"color" "BorderDark"
					"offset" "1 0"
				}
			}

			Top
			{
				"1"
				{
					"color" "BorderBright"
					"offset" "0 0"
				}
			}

			Bottom
			{
				"1"
				{
					"color" "BorderDark"
					"offset" "0 0"
				}
			}
		}

		TitleButtonDisabledBorder
		{
			"inset" "0 0 1 1"
			Left
			{
				"1"
				{
					"color" "BgColor"
					"offset" "0 1"
				}
			}

			Right
			{
				"1"
				{
					"color" "BgColor"
					"offset" "1 0"
				}
			}
			Top
			{
				"1"
				{
					"color" "BgColor"
					"offset" "0 0"
				}
			}

			Bottom
			{
				"1"
				{
					"color" "BgColor"
					"offset" "0 0"
				}
			}
		}

		TitleButtonDepressedBorder
		{
			"inset" "1 1 1 1"
			Left
			{
				"1"
				{
					"color" "BorderDark"
					"offset" "0 1"
				}
			}

			Right
			{
				"1"
				{
					"color" "BorderBright"
					"offset" "1 0"
				}
			}

			Top
			{
				"1"
				{
					"color" "BorderDark"
					"offset" "0 0"
				}
			}

			Bottom
			{
				"1"
				{
					"color" "BorderBright"
					"offset" "0 0"
				}
			}
		}

		ScrollBarButtonBorder
		{
			"inset" "1 0 0 0"
			Left
			{
				"1"
				{
					"color" "BorderBright"
					"offset" "0 1"
				}
			}

			Right
			{
				"1"
				{
					"color" "BorderDark"
					"offset" "1 0"
				}
			}

			Top
			{
				"1"
				{
					"color" "BorderBright"
					"offset" "0 0"
				}
			}

			Bottom
			{
				"1"
				{
					"color" "BorderDark"
					"offset" "0 0"
				}
			}
		}

		ScrollBarButtonDepressedBorder
		{
			"inset" "2 2 0 0"
			Left
			{
				"1"
				{
					"color" "BorderDark"
					"offset" "0 1"
				}
			}

			Right
			{
				"1"
				{
					"color" "BorderBright"
					"offset" "1 0"
				}
			}

			Top
			{
				"1"
				{
					"color" "BorderDark"
					"offset" "0 0"
				}
			}

			Bottom
			{
				"1"
				{
					"color" "BorderBright"
					"offset" "0 0"
				}
			}
		}
		
		ButtonBorder
		{
			"inset" "0 0 0 0"
			Left
			{
				"1"
				{
					"color" "BorderBright"
					"offset" "0 1"
				}
			}

			Right
			{
				"1"
				{
					"color" "BorderDark"
					"offset" "0 0"
				}
			}

			Top
			{
				"1"
				{
					"color" "BorderBright"
					"offset" "1 1"
				}
			}

			Bottom
			{
				"1"
				{
					"color" "BorderDark"
					"offset" "0 0"
				}
			}
		}

		FrameBorder
		{
			"inset" "0 0 1 1"
			Left
			{
				"1"
				{
					"color" "ControlBG"
					"offset" "0 1"
				}
			}

			Right
			{
				"1"
				{
					"color" "ControlBG"
					"offset" "0 0"
				}
			}

			Top
			{
				"1"
				{
					"color" "ControlBG"
					"offset" "0 1"
				}
			}

			Bottom
			{
				"1"
				{
					"color" "ControlBG"
					"offset" "0 0"
				}
			}
		}

		TabBorder
		{
			"inset" "0 0 1 1"
			Left
			{
				"1"
				{
					"color" "BorderBright"
					"offset" "0 1"
				}
			}

			Right
			{
				"1"
				{
					"color" "BorderDark"
					"offset" "1 0"
				}
			}

			Top
			{
				"1"
				{
					"color" "BorderBright"
					"offset" "0 0"
				}
			}

			Bottom
			{
				"1"
				{
					"color" "BorderBright"
					"offset" "0 0"
				}
			}
		}

		TabActiveBorder
		{
			"inset" "0 0 1 0"
			Left
			{
				"1"
				{
					"color" "BorderBright"
					"offset" "0 0"
				}
			}

			Right
			{
				"1"
				{
					"color" "BorderDark"
					"offset" "1 0"
				}
			}

			Top
			{
				"1"
				{
					"color" "BorderBright"
					"offset" "0 0"
				}
			}

			Bottom
			{
				"1"
				{
					"color" "ControlBG"
					"offset" "6 2"
				}
			}
		}


		ToolTipBorder
		{
			"inset" "0 0 1 0"
			Left
			{
				"1"
				{
					"color" "BorderDark"
					"offset" "0 0"
				}
			}

			Right
			{
				"1"
				{
					"color" "BorderDark"
					"offset" "1 0"
				}
			}

			Top
			{
				"1"
				{
					"color" "BorderDark"
					"offset" "0 0"
				}
			}

			Bottom
			{
				"1"
				{
					"color" "BorderDark"
					"offset" "0 0"
				}
			}
		}

		// this is the border used for default buttons (the button that gets pressed when you hit enter)
		ButtonKeyFocusBorder
		{
			"inset" "0 0 0 0"
			Left
			{
				"1"
				{
					"color" "BorderBright"
					"offset" "0 1"
				}
			}

			Right
			{
				"1"
				{
					"color" "BorderDark"
					"offset" "0 0"
				}
			}

			Top
			{
				"1"
				{
					"color" "BorderBright"
					"offset" "1 1"
				}
			}

			Bottom
			{
				"1"
				{
					"color" "BorderDark"
					"offset" "0 0"
				}
			}
		}

		ButtonDepressedBorder
		{
			"inset" "0 0 0 0"
			Left
			{
				"1"
				{
					"color" "BorderBright"
					"offset" "0 1"
				}
			}

			Right
			{
				"1"
				{
					"color" "BorderDark"
					"offset" "0 0"
				}
			}

			Top
			{
				"1"
				{
					"color" "BorderBright"
					"offset" "1 1"
				}
			}

			Bottom
			{
				"1"
				{
					"color" "BorderDark"
					"offset" "0 0"
				}
			}
		}

		ComboBoxBorder
		{
			"inset" "0 0 1 1"
			Left
			{
				"1"
				{
					"color" "BorderDark"
					"offset" "0 1"
				}
			}

			Right
			{
				"1"
				{
					"color" "BorderBright"
					"offset" "1 0"
				}
			}

			Top
			{
				"1"
				{
					"color" "BorderDark"
					"offset" "0 0"
				}
			}

			Bottom
			{
				"1"
				{
					"color" "BorderBright"
					"offset" "0 0"
				}
			}
		}

		MenuBorder
		{
			"inset" "1 1 1 1"
			Left
			{
				"1"
				{
					"color" "BorderBright"
					"offset" "0 1"
				}
			}

			Right
			{
				"1"
				{
					"color" "BorderDark"
					"offset" "1 0"
				}
			}

			Top
			{
				"1"
				{
					"color" "BorderBright"
					"offset" "0 0"
				}
			}

			Bottom
			{
				"1"
				{
					"color" "BorderDark"
					"offset" "0 0"
				}
			}
		}
		BrowserBorder
		{
			"inset" "0 0 0 1"
			Left
			{
				"1"
				{
					"color" "BorderDark"
					"offset" "0 1"
				}
			}

			Right
			{
				"1"
				{
					"color" "BorderBright"
					"offset" "0 0"
				}
			}

			Top
			{
				"1"
				{
					"color" "BorderDark"
					"offset" "0 0"
				}
			}

			Bottom
			{
				"1"
				{
					"color" "BorderBright"
					"offset" "0 0"
				}
			}
		}
	}

	//////////////////////// CUSTOM FONT FILES /////////////////////////////
	//
	// specifies all the custom (non-system) font files that need to be loaded to service the above described fonts
	CustomFontFiles
	{
		"1"		"resource/DINLi.ttf"
		"2"		"resource/DINRg.ttf"
	}

}