"Resource/CreateMultiplayerGameBotPage.res"
{
	"BotPage"
	{
		"ControlName"		"CCreateMultiplayerGameBotPage"
		"fieldName"		"BotPage"
		"xpos"		"0"
		"ypos"		"28"
		"wide"		"332"
		"tall"		"364"
		"autoResize"		"0"
		"pinCorner"		"0"
		"visible"		"1"
		"enabled"		"1"
		"tabPosition"		"0"
	}
	"BotJoinTeamCombo"
	{
		"ControlName"		"ComboBox"
		"fieldName"		"BotJoinTeamCombo"
		"xpos"		"132"
		"ypos"		"50"
		"wide"		"128"
		"tall"		"24"
		"autoResize"		"0"
		"pinCorner"		"0"
		"visible"		"1"
		"enabled"		"1"
		"tabPosition"		"2"
		"textHidden"		"0"
		"editable"		"0"
		"maxchars"		"-1"
		"NumericInputOnly"		"0"
		"unicode"		"0"
	}
	"BotPrefixEntry"
	{
		"ControlName"		"TextEntry"
		"fieldName"		"BotPrefixEntry"
		"xpos"		"132"
		"ypos"		"20"
		"wide"		"128"
		"tall"		"24"
		"autoResize"		"0"
		"pinCorner"		"0"
		"visible"		"1"
		"enabled"		"1"
		"tabPosition"		"1"
		"textHidden"		"0"
		"editable"		"1"
		"maxchars"		"-1"
		"NumericInputOnly"		"0"
		"unicode"		"0"
	}
	"BotPrefixLabel"
	{
		"ControlName"		"Label"
		"fieldName"		"BotPrefixLabel"
		"xpos"		"24"
		"ypos"		"20"
		"wide"		"100"
		"tall"		"24"
		"autoResize"		"0"
		"pinCorner"		"0"
		"visible"		"1"
		"enabled"		"1"
		"tabPosition"		"0"
		"labelText"		"NamePrefix"
		"textAlignment"		"east"
		"dulltext"		"0"
		"brighttext"		"0"
	}
	"BotJoinTeamLabel"
	{
		"ControlName"		"Label"
		"fieldName"		"BotJoinTeamLabel"
		"xpos"		"24"
		"ypos"		"49"
		"wide"		"100"
		"tall"		"24"
		"autoResize"		"0"
		"pinCorner"		"0"
		"visible"		"1"
		"enabled"		"1"
		"tabPosition"		"0"
		"labelText"		"JoinTeam"
		"textAlignment"		"east"
		"dulltext"		"0"
		"brighttext"		"0"
	}
}
 