"Resource/DemoSmootherPanel.res"
{
	"DemoSmootherPanel"
	{
		"ControlName"		"Frame"
		"fieldName"		"DemoSmootherPanel"
		"xpos"		"139"
		"ypos"		"397"
		"wide"		"440"
		"tall"		"300"
		"autoResize"		"0"
		"pinCorner"		"0"
		"visible"		"1"
		"enabled"		"1"
		"tabPosition"		"0"
		"settitlebarvisible"		"1"
	}
	"DemoSmootherType"
	{
		"ControlName"		"MenuButton"
		"fieldName"		"DemoSmootherType"
		"xpos"		"12"
		"ypos"		"141"
		"wide"		"74"
		"tall"		"24"
		"autoResize"		"0"
		"pinCorner"		"0"
		"visible"		"1"
		"enabled"		"1"
		"tabPosition"		"0"
		"labelText"		"Process->"
		"textAlignment"		"west"
		"dulltext"		"0"
		"brighttext"		"0"
		"Default"		"0"
	}
	"DemoSmoothRevert"
	{
		"ControlName"		"Button"
		"fieldName"		"DemoSmoothRevert"
		"xpos"		"370"
		"ypos"		"116"
		"wide"		"64"
		"tall"		"24"
		"autoResize"		"0"
		"pinCorner"		"0"
		"visible"		"1"
		"enabled"		"1"
		"tabPosition"		"0"
		"labelText"		"Revert"
		"textAlignment"		"west"
		"dulltext"		"0"
		"brighttext"		"0"
		"command"		"revert"
		"Default"		"0"
	}
	"DemoSmoothOk"
	{
		"ControlName"		"Button"
		"fieldName"		"DemoSmoothOk"
		"xpos"		"370"
		"ypos"		"33"
		"wide"		"64"
		"tall"		"24"
		"autoResize"		"0"
		"pinCorner"		"0"
		"visible"		"1"
		"enabled"		"1"
		"tabPosition"		"0"
		"labelText"		"OK"
		"textAlignment"		"west"
		"dulltext"		"0"
		"brighttext"		"0"
		"command"		"close"
		"Default"		"0"
	}
	"DemoSmoothCancel"
	{
		"ControlName"		"Button"
		"fieldName"		"DemoSmoothCancel"
		"xpos"		"370"
		"ypos"		"59"
		"wide"		"64"
		"tall"		"24"
		"autoResize"		"0"
		"pinCorner"		"0"
		"visible"		"1"
		"enabled"		"1"
		"tabPosition"		"0"
		"labelText"		"Cancel"
		"textAlignment"		"west"
		"dulltext"		"0"
		"brighttext"		"0"
		"command"		"cancel"
		"Default"		"0"
	}
	"DemoSmoothSave"
	{
		"ControlName"		"Button"
		"fieldName"		"DemoSmoothSave"
		"xpos"		"370"
		"ypos"		"141"
		"wide"		"64"
		"tall"		"24"
		"autoResize"		"0"
		"pinCorner"		"0"
		"visible"		"1"
		"enabled"		"0"
		"tabPosition"		"0"
		"labelText"		"Save"
		"textAlignment"		"west"
		"dulltext"		"0"
		"brighttext"		"0"
		"command"		"save"
		"Default"		"0"
	}
	"DemoSmoothReload"
	{
		"ControlName"		"Button"
		"fieldName"		"DemoSmoothReload"
		"xpos"		"370"
		"ypos"		"91"
		"wide"		"64"
		"tall"		"24"
		"autoResize"		"0"
		"pinCorner"		"0"
		"visible"		"1"
		"enabled"		"1"
		"tabPosition"		"0"
		"labelText"		"Reload"
		"textAlignment"		"west"
		"dulltext"		"0"
		"brighttext"		"0"
		"command"		"reload"
		"Default"		"0"
	}
	"DemoSmoothStartFrame"
	{
		"ControlName"		"TextEntry"
		"fieldName"		"DemoSmoothStartFrame"
		"xpos"		"94"
		"ypos"		"59"
		"wide"		"84"
		"tall"		"24"
		"autoResize"		"0"
		"pinCorner"		"0"
		"visible"		"1"
		"enabled"		"1"
		"tabPosition"		"0"
		"textHidden"		"0"
		"editable"		"1"
		"maxchars"		"-1"
		"NumericInputOnly"		"0"
	}
	"DemoSmoothEndFrame"
	{
		"ControlName"		"TextEntry"
		"fieldName"		"DemoSmoothEndFrame"
		"xpos"		"94"
		"ypos"		"84"
		"wide"		"84"
		"tall"		"24"
		"autoResize"		"0"
		"pinCorner"		"0"
		"visible"		"1"
		"enabled"		"1"
		"tabPosition"		"0"
		"textHidden"		"0"
		"editable"		"1"
		"maxchars"		"-1"
		"NumericInputOnly"		"0"
	}
	"DemoSmoothPreviewOriginal"
	{
		"ControlName"		"Button"
		"fieldName"		"DemoSmoothPreviewOriginal"
		"xpos"		"11"
		"ypos"		"241"
		"wide"		"94"
		"tall"		"24"
		"autoResize"		"0"
		"pinCorner"		"0"
		"visible"		"1"
		"enabled"		"1"
		"tabPosition"		"0"
		"labelText"		"Show Original"
		"textAlignment"		"west"
		"dulltext"		"0"
		"brighttext"		"0"
		"command"		"original"
		"Default"		"0"
	}
	"DemoSmoothPreviewProcessed"
	{
		"ControlName"		"Button"
		"fieldName"		"DemoSmoothPreviewProcessed"
		"xpos"		"105"
		"ypos"		"241"
		"wide"		"109"
		"tall"		"24"
		"autoResize"		"0"
		"pinCorner"		"0"
		"visible"		"1"
		"enabled"		"1"
		"tabPosition"		"0"
		"labelText"		"Show Processed"
		"textAlignment"		"west"
		"dulltext"		"0"
		"brighttext"		"0"
		"command"		"processed"
		"Default"		"0"
	}
	"DemoSmoothBackoff"
	{
		"ControlName"		"CheckButton"
		"fieldName"		"DemoSmoothBackoff"
		"xpos"		"5"
		"ypos"		"167"
		"wide"		"114"
		"tall"		"24"
		"autoResize"		"0"
		"pinCorner"		"0"
		"visible"		"1"
		"enabled"		"1"
		"tabPosition"		"0"
		"labelText"		"Back off"
		"textAlignment"		"west"
		"dulltext"		"0"
		"brighttext"		"0"
		"Default"		"0"
	}
	"DemoSmoothHideLegend"
	{
		"ControlName"		"CheckButton"
		"fieldName"		"DemoSmoothHideLegend"
		"xpos"		"238"
		"ypos"		"78"
		"wide"		"106"
		"tall"		"24"
		"autoResize"		"0"
		"pinCorner"		"0"
		"visible"		"1"
		"enabled"		"1"
		"tabPosition"		"0"
		"labelText"		"Hide legend"
		"textAlignment"		"west"
		"dulltext"		"0"
		"brighttext"		"0"
		"Default"		"0"
	}
	"DemoSmoothHideOriginal"
	{
		"ControlName"		"CheckButton"
		"fieldName"		"DemoSmoothHideOriginal"
		"xpos"		"238"
		"ypos"		"98"
		"wide"		"121"
		"tall"		"24"
		"autoResize"		"0"
		"pinCorner"		"0"
		"visible"		"1"
		"enabled"		"1"
		"tabPosition"		"0"
		"labelText"		"Hide original"
		"textAlignment"		"west"
		"dulltext"		"0"
		"brighttext"		"0"
		"Default"		"0"
	}
	"DemoSmoothHideProcessed"
	{
		"ControlName"		"CheckButton"
		"fieldName"		"DemoSmoothHideProcessed"
		"xpos"		"238"
		"ypos"		"117"
		"wide"		"129"
		"tall"		"24"
		"autoResize"		"0"
		"pinCorner"		"0"
		"visible"		"1"
		"enabled"		"1"
		"tabPosition"		"0"
		"labelText"		"Hide processed"
		"textAlignment"		"west"
		"dulltext"		"0"
		"brighttext"		"0"
		"Default"		"0"
	}
	"DemoSmoothSelectionInfo"
	{
		"ControlName"		"Label"
		"fieldName"		"DemoSmoothSelectionInfo"
		"xpos"		"10"
		"ypos"		"33"
		"wide"		"344"
		"tall"		"24"
		"autoResize"		"0"
		"pinCorner"		"0"
		"visible"		"1"
		"enabled"		"1"
		"tabPosition"		"0"
		"labelText"		"No smoothing info loaded"
		"textAlignment"		"west"
		"dulltext"		"0"
		"brighttext"		"0"
	}
	"DemoSmoothShowAll"
	{
		"ControlName"		"CheckButton"
		"fieldName"		"DemoSmoothShowAll"
		"xpos"		"238"
		"ypos"		"58"
		"wide"		"109"
		"tall"		"24"
		"autoResize"		"0"
		"pinCorner"		"0"
		"visible"		"1"
		"enabled"		"1"
		"tabPosition"		"0"
		"labelText"		"Show All"
		"textAlignment"		"west"
		"dulltext"		"0"
		"brighttext"		"0"
		"Default"		"0"
	}
	"DemoSmoothSelect"
	{
		"ControlName"		"Button"
		"fieldName"		"DemoSmoothSelect"
		"xpos"		"181"
		"ypos"		"70"
		"wide"		"49"
		"tall"		"24"
		"autoResize"		"0"
		"pinCorner"		"0"
		"visible"		"1"
		"enabled"		"1"
		"tabPosition"		"0"
		"labelText"		"Select"
		"textAlignment"		"west"
		"dulltext"		"0"
		"brighttext"		"0"
		"command"		"select"
		"Default"		"0"
	}
	"DemoSmoothPauseResume"
	{
		"ControlName"		"Button"
		"fieldName"		"DemoSmoothPauseResume"
		"xpos"		"46"
		"ypos"		"266"
		"wide"		"55"
		"tall"		"24"
		"autoResize"		"0"
		"pinCorner"		"0"
		"visible"		"1"
		"enabled"		"0"
		"tabPosition"		"0"
		"labelText"		"Resume"
		"textAlignment"		"west"
		"dulltext"		"0"
		"brighttext"		"0"
		"command"		"togglepause"
		"Default"		"0"
	}
	"DemoSmoothStepForward"
	{
		"ControlName"		"Button"
		"fieldName"		"DemoSmoothStepForward"
		"xpos"		"101"
		"ypos"		"266"
		"wide"		"34"
		"tall"		"24"
		"autoResize"		"0"
		"pinCorner"		"0"
		"visible"		"1"
		"enabled"		"0"
		"tabPosition"		"0"
		"labelText"		">>"
		"textAlignment"		"west"
		"dulltext"		"0"
		"brighttext"		"0"
		"command"		"stepforward"
		"Default"		"0"
	}
	"DemoSmoothStepBackward"
	{
		"ControlName"		"Button"
		"fieldName"		"DemoSmoothStepBackward"
		"xpos"		"12"
		"ypos"		"266"
		"wide"		"34"
		"tall"		"24"
		"autoResize"		"0"
		"pinCorner"		"0"
		"visible"		"1"
		"enabled"		"0"
		"tabPosition"		"0"
		"labelText"		"<<"
		"textAlignment"		"west"
		"dulltext"		"0"
		"brighttext"		"0"
		"command"		"stepbackward"
		"Default"		"0"
	}
	"DemoSmoothRevertPoint"
	{
		"ControlName"		"Button"
		"fieldName"		"DemoSmoothRevertPoint"
		"xpos"		"370"
		"ypos"		"266"
		"wide"		"64"
		"tall"		"24"
		"autoResize"		"0"
		"pinCorner"		"0"
		"visible"		"1"
		"enabled"		"1"
		"tabPosition"		"0"
		"labelText"		"Revert Pt."
		"textAlignment"		"west"
		"dulltext"		"0"
		"brighttext"		"0"
		"command"		"revertpoint"
		"Default"		"0"
	}
	"DemoSmoothSetKeyFrame"
	{
		"ControlName"		"Button"
		"fieldName"		"DemoSmoothSetKeyFrame"
		"xpos"		"230"
		"ypos"		"266"
		"wide"		"118"
		"tall"		"22"
		"autoResize"		"0"
		"pinCorner"		"0"
		"visible"		"1"
		"enabled"		"0"
		"tabPosition"		"0"
		"labelText"		"Mark Keyframe"
		"textAlignment"		"west"
		"dulltext"		"0"
		"brighttext"		"0"
		"command"		"keyframe"
		"Default"		"0"
	}
	"DemoSmoothSetLookTarget"
	{
		"ControlName"		"Button"
		"fieldName"		"DemoSmoothSetLookTarget"
		"xpos"		"230"
		"ypos"		"242"
		"wide"		"117"
		"tall"		"22"
		"autoResize"		"0"
		"pinCorner"		"0"
		"visible"		"1"
		"enabled"		"0"
		"tabPosition"		"0"
		"labelText"		"Mark Look Target"
		"textAlignment"		"west"
		"dulltext"		"0"
		"brighttext"		"0"
		"command"		"looktarget"
		"Default"		"0"
	}
	"DemoSmoothUndo"
	{
		"ControlName"		"Button"
		"fieldName"		"DemoSmoothUndo"
		"xpos"		"370"
		"ypos"		"185"
		"wide"		"64"
		"tall"		"24"
		"autoResize"		"0"
		"pinCorner"		"0"
		"visible"		"1"
		"enabled"		"0"
		"tabPosition"		"0"
		"labelText"		"Undo"
		"textAlignment"		"west"
		"dulltext"		"0"
		"brighttext"		"0"
		"command"		"undo"
		"Default"		"0"
	}
	"DemoSmoothRedo"
	{
		"ControlName"		"Button"
		"fieldName"		"DemoSmoothRedo"
		"xpos"		"370"
		"ypos"		"210"
		"wide"		"64"
		"tall"		"24"
		"autoResize"		"0"
		"pinCorner"		"0"
		"visible"		"1"
		"enabled"		"0"
		"tabPosition"		"0"
		"labelText"		"Redo"
		"textAlignment"		"west"
		"dulltext"		"0"
		"brighttext"		"0"
		"command"		"redo"
		"Default"		"0"
	}
	"DemoSmoothNextKey"
	{
		"ControlName"		"Button"
		"fieldName"		"DemoSmoothNextKey"
		"xpos"		"297"
		"ypos"		"186"
		"wide"		"64"
		"tall"		"24"
		"autoResize"		"0"
		"pinCorner"		"0"
		"visible"		"1"
		"enabled"		"1"
		"tabPosition"		"0"
		"labelText"		"+Key"
		"textAlignment"		"west"
		"dulltext"		"0"
		"brighttext"		"0"
		"command"		"nextkey"
		"Default"		"0"
	}
	"DemoSmoothPrevKey"
	{
		"ControlName"		"Button"
		"fieldName"		"DemoSmoothPrevKey"
		"xpos"		"233"
		"ypos"		"186"
		"wide"		"64"
		"tall"		"24"
		"autoResize"		"0"
		"pinCorner"		"0"
		"visible"		"1"
		"enabled"		"1"
		"tabPosition"		"0"
		"labelText"		"-Key"
		"textAlignment"		"west"
		"dulltext"		"0"
		"brighttext"		"0"
		"command"		"prevkey"
		"Default"		"0"
	}
	"DemoSmoothNextTarget"
	{
		"ControlName"		"Button"
		"fieldName"		"DemoSmoothNextTarget"
		"xpos"		"297"
		"ypos"		"210"
		"wide"		"64"
		"tall"		"24"
		"autoResize"		"0"
		"pinCorner"		"0"
		"visible"		"1"
		"enabled"		"1"
		"tabPosition"		"0"
		"labelText"		"+Target"
		"textAlignment"		"west"
		"dulltext"		"0"
		"brighttext"		"0"
		"command"		"nexttarget"
		"Default"		"0"
	}
	"DemoSmoothPrevTarget"
	{
		"ControlName"		"Button"
		"fieldName"		"DemoSmoothPrevTarget"
		"xpos"		"233"
		"ypos"		"210"
		"wide"		"64"
		"tall"		"24"
		"autoResize"		"0"
		"pinCorner"		"0"
		"visible"		"1"
		"enabled"		"1"
		"tabPosition"		"0"
		"labelText"		"-Target"
		"textAlignment"		"west"
		"dulltext"		"0"
		"brighttext"		"0"
		"command"		"prevtarget"
		"Default"		"0"
	}
	"DemoSmoothCamera"
	{
		"ControlName"		"Button"
		"fieldName"		"DemoSmoothCamera"
		"xpos"		"37"
		"ypos"		"204"
		"wide"		"73"
		"tall"		"22"
		"autoResize"		"0"
		"pinCorner"		"0"
		"visible"		"1"
		"enabled"		"1"
		"tabPosition"		"0"
		"labelText"		"Drive Fast"
		"textAlignment"		"west"
		"dulltext"		"0"
		"brighttext"		"0"
		"Default"		"1"
	}
	"DemoSmoothCameraSlow"
	{
		"ControlName"		"Button"
		"fieldName"		"DemoSmoothCameraSlow"
		"xpos"		"117"
		"ypos"		"204"
		"wide"		"75"
		"tall"		"22"
		"autoResize"		"0"
		"pinCorner"		"0"
		"visible"		"1"
		"enabled"		"1"
		"tabPosition"		"0"
		"labelText"		"Drive Slow"
		"textAlignment"		"west"
		"dulltext"		"0"
		"brighttext"		"0"
		"Default"		"0"
	}
	"DemoSmoothCameraAtPoint"
	{
		"ControlName"		"Button"
		"fieldName"		"DemoSmoothCameraAtPoint"
		"xpos"		"105"
		"ypos"		"166"
		"wide"		"64"
		"tall"		"24"
		"autoResize"		"0"
		"pinCorner"		"0"
		"visible"		"1"
		"enabled"		"1"
		"tabPosition"		"0"
		"labelText"		"Set View"
		"textAlignment"		"west"
		"dulltext"		"0"
		"brighttext"		"0"
		"command"		"setview"
		"Default"		"0"
	}
	"DemoSmoothFixFrameButton"
	{
		"ControlName"		"MenuButton"
		"fieldName"		"DemoSmoothFixFrameButton"
		"xpos"		"179"
		"ypos"		"109"
		"wide"		"53"
		"tall"		"24"
		"autoResize"		"0"
		"pinCorner"		"0"
		"visible"		"1"
		"enabled"		"1"
		"tabPosition"		"0"
		"labelText"		"Edge->"
		"textAlignment"		"west"
		"dulltext"		"0"
		"brighttext"		"0"
		"Default"		"0"
	}
	"DemoSmoothFixFrames"
	{
		"ControlName"		"TextEntry"
		"fieldName"		"DemoSmoothFixFrames"
		"xpos"		"94"
		"ypos"		"110"
		"wide"		"84"
		"tall"		"24"
		"autoResize"		"0"
		"pinCorner"		"0"
		"visible"		"1"
		"enabled"		"1"
		"tabPosition"		"0"
		"textHidden"		"0"
		"editable"		"1"
		"maxchars"		"-1"
		"NumericInputOnly"		"0"
	}
	"DemoSmoothSaveKey"
	{
		"ControlName"		"Button"
		"fieldName"		"DemoSmoothSaveKey"
		"xpos"		"370"
		"ypos"		"242"
		"wide"		"64"
		"tall"		"24"
		"autoResize"		"0"
		"pinCorner"		"0"
		"visible"		"1"
		"enabled"		"0"
		"tabPosition"		"0"
		"labelText"		"Save Key"
		"textAlignment"		"west"
		"dulltext"		"0"
		"brighttext"		"0"
		"command"		"processkey"
		"Default"		"0"
	}
	"DemoSmoothLockCamera"
	{
		"ControlName"		"CheckButton"
		"fieldName"		"DemoSmoothLockCamera"
		"xpos"		"96"
		"ypos"		"141"
		"wide"		"106"
		"tall"		"24"
		"autoResize"		"0"
		"pinCorner"		"0"
		"visible"		"1"
		"enabled"		"1"
		"tabPosition"		"0"
		"labelText"		"Lock camera"
		"textAlignment"		"west"
		"dulltext"		"0"
		"brighttext"		"0"
		"Default"		"0"
	}
	"DemoSmoothGotoFrame"
	{
		"ControlName"		"TextEntry"
		"fieldName"		"DemoSmoothGotoFrame"
		"xpos"		"292"
		"ypos"		"141"
		"wide"		"64"
		"tall"		"24"
		"autoResize"		"0"
		"pinCorner"		"0"
		"visible"		"1"
		"enabled"		"1"
		"tabPosition"		"0"
		"textHidden"		"0"
		"editable"		"1"
		"maxchars"		"-1"
		"NumericInputOnly"		"0"
	}
	"DemoSmoothGoto"
	{
		"ControlName"		"Button"
		"fieldName"		"DemoSmoothGoto"
		"xpos"		"224"
		"ypos"		"141"
		"wide"		"64"
		"tall"		"24"
		"autoResize"		"0"
		"pinCorner"		"0"
		"visible"		"1"
		"enabled"		"1"
		"tabPosition"		"0"
		"labelText"		"Jump To"
		"textAlignment"		"west"
		"dulltext"		"0"
		"brighttext"		"0"
		"command"		"gotoframe"
		"Default"		"0"
	}
	"Label1"
	{
		"ControlName"		"Label"
		"fieldName"		"Label1"
		"xpos"		"13"
		"ypos"		"59"
		"wide"		"77"
		"tall"		"24"
		"autoResize"		"0"
		"pinCorner"		"0"
		"visible"		"1"
		"enabled"		"1"
		"tabPosition"		"0"
		"labelText"		"Start Frame:"
		"textAlignment"		"west"
		"dulltext"		"0"
		"brighttext"		"0"
	}
	"Label2"
	{
		"ControlName"		"Label"
		"fieldName"		"Label2"
		"xpos"		"13"
		"ypos"		"84"
		"wide"		"77"
		"tall"		"24"
		"autoResize"		"0"
		"pinCorner"		"0"
		"visible"		"1"
		"enabled"		"1"
		"tabPosition"		"0"
		"labelText"		"End Frame:"
		"textAlignment"		"west"
		"dulltext"		"0"
		"brighttext"		"0"
	}
	"Label3"
	{
		"ControlName"		"Label"
		"fieldName"		"Label3"
		"xpos"		"12"
		"ypos"		"110"
		"wide"		"81"
		"tall"		"24"
		"autoResize"		"0"
		"pinCorner"		"0"
		"visible"		"1"
		"enabled"		"1"
		"tabPosition"		"0"
		"labelText"		"Edge Frames:"
		"textAlignment"		"west"
		"dulltext"		"0"
		"brighttext"		"0"
	}
}
