"Resource\LoadGameDialog.res"
{
	"LoadGameDialog"
	{
		"ControlName"		"Frame"
		"fieldName"		"LoadGameDialog"
		"xpos"		"320"
		"ypos"		"208"
		"wide"		"536"
		"tall"		"390"
		"autoResize"		"0"
		"pinCorner"		"0"
		"visible"		"1"
		"enabled"		"1"
		"tabPosition"		"0"
	}
	"HelpText"
	{
		"ControlName"		"Label"
		"fieldName"		"HelpText"
		"xpos"		"20"
		"ypos"		"28"
		"wide"		"414"
		"tall"		"40"
		"autoResize"		"0"
		"pinCorner"		"0"
		"visible"		"1"
		"enabled"		"1"
		"tabPosition"		"0"
		"labelText"		"#GameUI_LoadGameHelp"
		"textAlignment"		"west"
		"dulltext"		"1"
	}
	"Load"
	{
		"ControlName"		"Button"
		"fieldName"		"Load"
		"xpos"		"358"
		"ypos"		"352"
		"wide"		"82"
		"tall"		"24"
		"autoResize"		"0"
		"pinCorner"		"3"
		"visible"		"1"
		"enabled"		"1"
		"tabPosition"		"2"
		"labelText"		"#GameUI_Load"
		"textAlignment"		"west"
		"dulltext"		"0"
		"command"		"Load"
		"default"		"1"
	}
	"Cancel"
	{
		"ControlName"		"Button"
		"fieldName"		"Cancel"
		"xpos"		"450"
		"ypos"		"352"
		"wide"		"70"
		"tall"		"24"
		"autoResize"		"0"
		"pinCorner"		"3"
		"visible"		"1"
		"enabled"		"1"
		"tabPosition"		"3"
		"labelText"		"#GameUI_Cancel"
		"textAlignment"		"west"
		"dulltext"		"0"
		"command"		"Close"
		"default"		"0"
	}
	"listpanel_loadgame"
	{
		"ControlName"		"ListPanel"
		"fieldName"		"listpanel_loadgame"
		"xpos"		"20"
		"ypos"		"66"
		"wide"		"500"
		"tall"		"276"
		"autoResize"		"3"
		"pinCorner"		"0"
		"visible"		"1"
		"enabled"		"1"
		"tabPosition"		"1"
	}
	"BuildDialog"
	{
		"ControlName"		"BuildModeDialog"
		"fieldName"		"BuildDialog"
		"xpos"		"35"
		"ypos"		"208"
		"wide"		"285"
		"tall"		"465"
		"autoResize"		"0"
		"pinCorner"		"0"
		"visible"		"1"
		"enabled"		"1"
		"tabPosition"		"0"
	}
	"topHorizLeft"
	{
		"ControlName"		"Label"
		"fieldName"		"topHorizLeft"
		"xpos"		"0"
		"ypos"		"0"
		"wide"		"64"
		"tall"		"24"
		"autoResize"		"0"
		"pinCorner"		"0"
		"visible"		"0"
		"enabled"		"1"
		"tabPosition"		"0"
		"textAlignment"		"west"
		"dulltext"		"0"
	}
	"topVertLeft"
	{
		"ControlName"		"Label"
		"fieldName"		"topVertLeft"
		"xpos"		"0"
		"ypos"		"0"
		"wide"		"64"
		"tall"		"24"
		"autoResize"		"0"
		"pinCorner"		"0"
		"visible"		"0"
		"enabled"		"1"
		"tabPosition"		"0"
		"textAlignment"		"west"
		"dulltext"		"0"
	}
	"bottomHorizRight"
	{
		"ControlName"		"Label"
		"fieldName"		"bottomHorizRight"
		"xpos"		"0"
		"ypos"		"0"
		"wide"		"64"
		"tall"		"24"
		"autoResize"		"0"
		"pinCorner"		"0"
		"visible"		"0"
		"enabled"		"1"
		"tabPosition"		"0"
		"textAlignment"		"west"
		"dulltext"		"0"
	}
	"bottomVertRight"
	{
		"ControlName"		"Label"
		"fieldName"		"bottomVertRight"
		"xpos"		"0"
		"ypos"		"0"
		"wide"		"64"
		"tall"		"24"
		"autoResize"		"0"
		"pinCorner"		"0"
		"visible"		"0"
		"enabled"		"1"
		"tabPosition"		"0"
		"textAlignment"		"west"
		"dulltext"		"0"
	}
}
