
"Resource/OptionsSubMultiplayer.res"
{
	"OptionsSubMultiplayer"
	{
		"ControlName"		"COptionsSubMultiplayer"
		"fieldName"		"OptionsSubMultiplayer"
		"xpos"		"0"
		"ypos"		"28"
		"wide"		"496"
		"tall"		"305"
		"autoResize"		"0"
		"pinCorner"		"0"
		"RoundedCorners"		"15"
		"pin_corner_to_sibling"		"0"
		"pin_to_sibling_corner"		"0"
		"visible"		"1"
		"enabled"		"1"
		"tabPosition"		"0"
	}
	
	////////////////////////////////////// NAME

	"NameLabel"
	{
		"ControlName"		"Label"
		"fieldName"		"NameLabel"
		"xpos"		"210"
		"ypos"		"100"
		"wide"		"150"
		"tall"		"24"
		"autoResize"		"0"
		"pinCorner"		"0"
		"visible"		"1"
		"enabled"		"1"
		"tabPosition"		"0"
		"labelText"		"#GameUI_PlayerName"
		"textAlignment"		"west"
		"associate"		"NameEntry"
		"dulltext"		"0"
		"brighttext"		"0"
	}
	"NameEntry"
	{
		"ControlName"		"CCvarTextEntry"
		"fieldName"		"NameEntry"
		"xpos"		"150"
		"ypos"		"130"
		"wide"		"196"
		"tall"		"24"
		"autoResize"		"0"
		"pinCorner"		"0"
		"visible"		"1"
		"enabled"		"1"
		"tabPosition"		"1"
		"textHidden"		"0"
		"editable"		"1"
		"maxchars"		"-1"
	}

	////////////////////////////////////// SPRAY
	
	"Label2"
	{
		"ControlName"		"Label"
		"fieldName"		"Label2"
		"xpos"		"32"
		"ypos"		"96"
		"wide"		"150"
		"tall"		"18"
		"autoResize"		"0"
		"pinCorner"		"0"
		"RoundedCorners"		"15"
		"pin_corner_to_sibling"		"0"
		"pin_to_sibling_corner"		"0"
		"visible"		"0"
		"enabled"		"1"
		"tabPosition"		"0"
		"labelText"		"#GameUI_SpraypaintImage"
		"textAlignment"		"west"
		"associate"		"SpraypaintList"
		"dulltext"		"0"
		"brighttext"		"0"
		"wrap"		"0"
		"centerwrap"		"0"
		"textinsetx"		"0"
		"textinsety"		"0"
		"auto_wide_tocontents"		"0"
	}
	"LogoImage"
	{
		"ControlName"		"ImagePanel"
		"fieldName"		"LogoImage"
		"xpos"		"32"
		"ypos"		"130" //+24
		"wide"		"128"
		"tall"		"128"
		"autoResize"		"0"
		"pinCorner"		"0"
		"RoundedCorners"		"15"
		"pin_corner_to_sibling"		"0"
		"pin_to_sibling_corner"		"0"
		"visible"		"0"
		"enabled"		"1"
		"tabPosition"		"0"
		"image"		"materials/vgui/logos/"
		"border"		"DepressedBorder"
		"scaleImage"		"1"
		"scaleAmount"		"0.000000"
		"tileImage"		"0"
		"tileHorizontally"		"0"
		"tileVertically"		"0"
	}
	"SpraypaintList"
	{
		"ControlName"		"CLabeledCommandComboBox"
		"fieldName"		"SpraypaintList"
		"xpos"		"170"
		"ypos"		"160" //+24
		"wide"		"124"
		"tall"		"24"
		"autoResize"		"0"
		"pinCorner"		"0"
		"RoundedCorners"		"15"
		"pin_corner_to_sibling"		"0"
		"pin_to_sibling_corner"		"0"
		"visible"		"0"
		"enabled"		"1"
		"tabPosition"		"3"
		"textHidden"		"0"
		"editable"		"0"
		"maxchars"		"-1"
		"NumericInputOnly"		"0"
		"unicode"		"0"
	}
	"SpraypaintColor"
	{
		"ControlName"		"CLabeledCommandComboBox"
		"fieldName"		"SpraypaintColor"
		"xpos"		"112"
		"ypos"		"190"
		"wide"		"124"
		"tall"		"24"
		"autoResize"		"0"
		"pinCorner"		"0"
		"visible"		"0"
		"enabled"		"0"
		"tabPosition"		"3"
		"textHidden"		"0"
		"editable"		"0"
		"maxchars"		"-1"
	}
	"Label3"
	{
		"ControlName"		"Label"
		"fieldName"		"Label3"
		"xpos"		"32"
		"ypos"		"269" //+24
		"wide"		"204"
		"tall"		"64"
		"autoResize"		"0"
		"pinCorner"		"0"
		"RoundedCorners"		"15"
		"pin_corner_to_sibling"		"0"
		"pin_to_sibling_corner"		"0"
		"visible"		"0"
		"enabled"		"1"
		"tabPosition"		"0"
		"labelText"		"Spraypaints Are A In-Game Feature"
		"textAlignment"		"north-west"
		"dulltext"		"1"
		"brighttext"		"0"
		"font"		"defaultSmall"
		"wrap"		"1"
		"centerwrap"		"0"
		"textinsetx"		"0"
		"textinsety"		"0"
		"auto_wide_tocontents"		"0"
	}
	"ImportSprayImage"
	{
		"ControlName"		"Button"
		"fieldName"		"ImportSprayImage"
		"xpos"		"170"
		"ypos"		"190" // +64
		"wide"		"124"
		"tall"		"24"
		"autoResize"		"0"
		"pinCorner"		"0"
		"RoundedCorners"		"15"
		"pin_corner_to_sibling"		"0"
		"pin_to_sibling_corner"		"0"
		"visible"		"0"
		"enabled"		"1"
		"tabPosition"		"4"
		"labelText"		"Import"
		"textAlignment"		"west"
		"dulltext"		"0"
		"brighttext"		"0"
		"wrap"		"0"
		"centerwrap"		"0"
		"textinsetx"		"6"
		"textinsety"		"0"
		"auto_wide_tocontents"		"0"
		"Command"		"ImportSprayImage"
		"Default"		"0"
		"selected"		"0"
	}
	"EnableSprays"
	{
		"ControlName"		"CCvarToggleCheckButton"
		"fieldName"		"EnableSprays"
		"xpos"		"240"
		"ypos"		"80"
		"wide"		"124"
		"tall"		"24"
		"autoResize"		"0"
		"pinCorner"		"0"
		"RoundedCorners"		"15"
		"pin_corner_to_sibling"		"0"
		"pin_to_sibling_corner"		"0"
		"visible"		"0"
		"enabled"		"1"
		"tabPosition"		"0"
		"labelText"		"#Enable Sprays"
		"textAlignment"		"west"
		"dulltext"		"0"
		"brighttext"		"0"
		"wrap"		"0"
		"centerwrap"		"0"
		"textinsetx"		"6"
		"textinsety"		"6"
		"auto_wide_tocontents"		"0"
		"Default"		"0"
		"selected"		"0"
	}
	
	////////////////////////////////////// THE REST
	
	"Cancel"
	{
		"ControlName"		"Button"
		"fieldName"		"Cancel"
		"xpos"		"810"
		"ypos"		"603"
		"wide"		"64"
		"tall"		"24"
		"autoResize"		"0"
		"pinCorner"		"3"
		"RoundedCorners"		"15"
		"pin_corner_to_sibling"		"0"
		"pin_to_sibling_corner"		"0"
		"visible"		"1"
		"enabled"		"1"
		"tabPosition"		"0"
		"labelText"		"#GameUI_Cancel"
		"textAlignment"		"west"
		"dulltext"		"0"
		"brighttext"		"0"
		"wrap"		"0"
		"centerwrap"		"0"
		"textinsetx"		"6"
		"textinsety"		"0"
		"auto_wide_tocontents"		"0"
		"Command"		"Close"
		"Default"		"0"
		"selected"		"0"
	}
	"ok"
	{
		"ControlName"		"Button"
		"fieldName"		"OK"
		"xpos"		"740"
		"ypos"		"603"
		"wide"		"64"
		"tall"		"24"
		"autoResize"		"0"
		"pinCorner"		"3"
		"RoundedCorners"		"15"
		"pin_corner_to_sibling"		"0"
		"pin_to_sibling_corner"		"0"
		"visible"		"1"
		"enabled"		"1"
		"tabPosition"		"0"
		"labelText"		"#GameUI_OK"
		"textAlignment"		"west"
		"dulltext"		"0"
		"brighttext"		"0"
		"wrap"		"0"
		"centerwrap"		"0"
		"textinsetx"		"6"
		"textinsety"		"0"
		"auto_wide_tocontents"		"0"
		"Command"		"Ok"
		"Default"		"0"
		"selected"		"0"
	}
	"Apply"
	{
		"ControlName"		"Button"
		"fieldName"		"Apply"
		"xpos"		"880"
		"ypos"		"603"
		"wide"		"64"
		"tall"		"24"
		"autoResize"		"0"
		"pinCorner"		"3"
		"RoundedCorners"		"15"
		"pin_corner_to_sibling"		"0"
		"pin_to_sibling_corner"		"0"
		"visible"		"1"
		"enabled"		"1"
		"tabPosition"		"0"
		"labelText"		"#GameUI_Apply"
		"textAlignment"		"west"
		"dulltext"		"0"
		"brighttext"		"0"
		"wrap"		"0"
		"centerwrap"		"0"
		"textinsetx"		"6"
		"textinsety"		"0"
		"auto_wide_tocontents"		"0"
		"Command"		"Apply"
		"Default"		"0"
		"selected"		"0"
	}
	"Advanced"
	{
		"ControlName"		"Button"
		"fieldName"		"Advanced"
		"xpos"		"32"
		"ypos"		"260"
		"wide"		"144"
		"tall"		"24"
		"autoResize"		"0"
		"pinCorner"		"0"
		"RoundedCorners"		"15"
		"pin_corner_to_sibling"		"0"
		"pin_to_sibling_corner"		"0"
		"visible"		"0"
		"enabled"		"1"
		"tabPosition"		"5"
		"labelText"		"#GameUI_AdvancedEllipsis"
		"textAlignment"		"west"
		"dulltext"		"0"
		"brighttext"		"0"
		"wrap"		"0"
		"centerwrap"		"0"
		"textinsetx"		"6"
		"textinsety"		"0"
		"auto_wide_tocontents"		"0"
		"Command"		"Advanced"
		"Default"		"0"
		"selected"		"0"
	}
	
	"Primary Color Slider"
	{
		"ControlName"		"CCvarSlider"
		"fieldName"		"Primary Color Slider"
		"xpos"		"20"
		"ypos"		"178"
		"wide"		"140"
		"tall"		"39"
		"autoResize"		"0"
		"pinCorner"		"0"
		"RoundedCorners"		"15"
		"pin_corner_to_sibling"		"0"
		"pin_to_sibling_corner"		"0"
		"visible"		"0"
		"enabled"		"1"
		"tabPosition"		"3"
		"leftText"		" "
		"rightText"		" "
	}
	"Secondary Color Slider"
	{
		"ControlName"		"CCvarSlider"
		"fieldName"		"Secondary Color Slider"
		"xpos"		"20"
		"ypos"		"213"
		"wide"		"140"
		"tall"		"42"
		"autoResize"		"0"
		"pinCorner"		"0"
		"RoundedCorners"		"15"
		"pin_corner_to_sibling"		"0"
		"pin_to_sibling_corner"		"0"
		"visible"		"0"
		"enabled"		"1"
		"tabPosition"		"4"
		"leftText"		" "
		"rightText"		" "
	}
	"High Quality Models"
	{
		"ControlName"		"CCvarToggleCheckButton"
		"fieldName"		"High Quality Models"
		"xpos"		"190"
		"ypos"		"249"
		"wide"		"174"
		"tall"		"24"
		"autoResize"		"0"
		"pinCorner"		"0"
		"RoundedCorners"		"15"
		"pin_corner_to_sibling"		"0"
		"pin_to_sibling_corner"		"0"
		"visible"		"0"
		"enabled"		"1"
		"tabPosition"		"5"
		"labelText"		"#GameUI_HighModels"
		"textAlignment"		"west"
		"dulltext"		"0"
		"brighttext"		"0"
		"wrap"		"0"
		"centerwrap"		"0"
		"textinsetx"		"6"
		"textinsety"		"0"
		"auto_wide_tocontents"		"0"
		"Default"		"0"
		"selected"		"0"
	}
	"Player model"
	{
		"ControlName"		"CLabeledCommandComboBox"
		"fieldName"		"Player model"
		"xpos"		"40"
		"ypos"		"112"
		"wide"		"140"
		"tall"		"24"
		"autoResize"		"0"
		"pinCorner"		"0"
		"RoundedCorners"		"15"
		"pin_corner_to_sibling"		"0"
		"pin_to_sibling_corner"		"0"
		"visible"		"0"
		"enabled"		"1"
		"tabPosition"		"2"
		"textHidden"		"0"
		"editable"		"0"
		"maxchars"		"-1"
		"NumericInputOnly"		"0"
		"unicode"		"0"
	}
	
	"ModelImage"
	{
		"ControlName"		"Panel"
		"fieldName"		"ModelImage"
		"xpos"		"176"
		"ypos"		"36"
		"wide"		"164"
		"tall"		"200"
		"autoResize"		"0"
		"pinCorner"		"0"
		"RoundedCorners"		"15"
		"pin_corner_to_sibling"		"0"
		"pin_to_sibling_corner"		"0"
		"visible"		"0"
		"enabled"		"1"
		"tabPosition"		"0"
	}
	"BuildModeDialog"
	{
		"ControlName"		"BuildModeDialog"
		"fieldName"		"BuildModeDialog"
		"xpos"		"1152"
		"ypos"		"264"
		"wide"		"300"
		"tall"		"420"
		"autoResize"		"0"
		"pinCorner"		"0"
		"RoundedCorners"		"15"
		"pin_corner_to_sibling"		"0"
		"pin_to_sibling_corner"		"0"
		"visible"		"1"
		"enabled"		"1"
		"tabPosition"		"0"
		"settitlebarvisible"		"1"
		"title"		"#Frame_Untitled"
	}
}
