"Resource\OptionsSubVideo.res"
{
	"Brightness"
	{
		"ControlName"		"CCvarSlider"
		"fieldName"		"Brightness"
		"xpos"		"40"
		"ypos"		"229"
		"wide"		"160"
		"tall"		"50"
		"autoResize"		"0"
		"pinCorner"		"0"
		"visible"		"1"
		"enabled"		"1"
		"tabPosition"		"6"
		"leftText"		"DARK"
		"rightText"		"LIGHT"
	}
	"Gamma"
	{
		"ControlName"		"CCvarSlider"
		"fieldName"		"Gamma"
		"xpos"		"248"
		"ypos"		"229"
		"wide"		"160"
		"tall"		"50"
		"autoResize"		"0"
		"pinCorner"		"0"
		"visible"		"1"
		"enabled"		"1"
		"tabPosition"		"7"
		"leftText"		"LOW"
		"rightText"		"HIGH"
	}
	"Resolution"
	{
		"ControlName"		"ComboBox"
		"fieldName"		"Resolution"
		"xpos"		"248"
		"ypos"		"52"
		"wide"		"160"
		"tall"		"24"
		"autoResize"		"0"
		"pinCorner"		"0"
		"visible"		"1"
		"enabled"		"1"
		"tabPosition"		"2"
		"textHidden"		"0"
		"editable"		"0"
		"maxchars"		"-1"
	}
	"AspectRatio"
	{
		"ControlName"		"ComboBox"
		"fieldName"		"AspectRatio"
		"xpos"		"40"
		"ypos"		"120"
		"wide"		"160"
		"tall"		"24"
		"autoResize"		"0"
		"pinCorner"		"0"
		"visible"		"1"
		"enabled"		"1"
		"tabPosition"		"3"
		"textHidden"		"0"
		"editable"		"0"
		"maxchars"		"-1"
	}
	"Renderer"
	{
		"ControlName"		"ComboBox"
		"fieldName"		"Renderer"
		"xpos"		"40"
		"ypos"		"52"
		"wide"		"160"
		"tall"		"24"
		"autoResize"		"0"
		"pinCorner"		"0"
		"visible"		"1"
		"enabled"		"1"
		"tabPosition"		"1"
		"textHidden"		"0"
		"editable"		"0"
		"maxchars"		"-1"
	}
	"ColorDepth"
	{
		"ControlName"		"ComboBox"
		"fieldName"		"ColorDepth"
		"xpos"		"248"
		"ypos"		"120"
		"wide"		"160"
		"tall"		"24"
		"autoResize"		"0"
		"pinCorner"		"0"
		"visible"		"1"
		"enabled"		"1"
		"tabPosition"		"4"
		"textHidden"		"0"
		"editable"		"0"
		"maxchars"		"-1"
	}
	"Windowed"
	{
		"ControlName"		"CheckButton"
		"fieldName"		"Windowed"
		"xpos"		"33"
		"ypos"		"164"
		"wide"		"160"
		"tall"		"24"
		"autoResize"		"0"
		"pinCorner"		"0"
		"visible"		"1"
		"enabled"		"1"
		"tabPosition"		"5"
		"labelText"		"#GameUI_Windowed"
		"textAlignment"		"west"
		"dulltext"		"0"
		"brighttext"		"0"
		"Default"		"0"
	}
	"brightness label"
	{
		"ControlName"		"Label"
		"fieldName"		"brightness label"
		"xpos"		"40"
		"ypos"		"207"
		"wide"		"140"
		"tall"		"24"
		"autoResize"		"0"
		"pinCorner"		"0"
		"visible"		"1"
		"enabled"		"1"
		"tabPosition"		"0"
		"labelText"		"#GameUI_Brightness"
		"textAlignment"		"west"
		"associate"		"Brightness"
		"dulltext"		"0"
		"brighttext"		"0"
	}
	"Gamma label"
	{
		"ControlName"		"Label"
		"fieldName"		"Gamma label"
		"xpos"		"248"
		"ypos"		"207"
		"wide"		"140"
		"tall"		"24"
		"autoResize"		"0"
		"pinCorner"		"0"
		"visible"		"1"
		"enabled"		"1"
		"tabPosition"		"0"
		"labelText"		"#GameUI_Gamma"
		"textAlignment"		"west"
		"associate"		"Gamma"
		"dulltext"		"0"
		"brighttext"		"0"
	}
	"Label1"
	{
		"ControlName"		"Label"
		"fieldName"		"Label1"
		"xpos"		"248"
		"ypos"		"28"
		"wide"		"160"
		"tall"		"24"
		"autoResize"		"0"
		"pinCorner"		"0"
		"visible"		"1"
		"enabled"		"1"
		"tabPosition"		"0"
		"labelText"		"#GameUI_Resolution"
		"textAlignment"		"west"
		"associate"		"Resolution"
		"dulltext"		"0"
		"brighttext"		"0"
	}
	"Label2"
	{
		"ControlName"		"Label"
		"fieldName"		"Label2"
		"xpos"		"40"
		"ypos"		"28"
		"wide"		"160"
		"tall"		"24"
		"autoResize"		"0"
		"pinCorner"		"0"
		"visible"		"1"
		"enabled"		"1"
		"tabPosition"		"0"
		"labelText"		"#GameUI_Renderer"
		"textAlignment"		"west"
		"associate"		"Renderer"
		"dulltext"		"0"
		"brighttext"		"0"
	}
	"Label3"
	{
		"ControlName"		"Label"
		"fieldName"		"Label3"
		"xpos"		"248"
		"ypos"		"96"
		"wide"		"160"
		"tall"		"24"
		"autoResize"		"0"
		"pinCorner"		"0"
		"visible"		"1"
		"enabled"		"1"
		"tabPosition"		"0"
		"labelText"		"#GameUI_ColorQuality"
		"textAlignment"		"west"
		"associate"		"ColorDepth"
		"dulltext"		"0"
		"brighttext"		"0"
	}
	"Label4"
	{
		"ControlName"		"Label"
		"fieldName"		"Label4"
		"xpos"		"40"
		"ypos"		"96"
		"wide"		"160"
		"tall"		"24"
		"autoResize"		"0"
		"pinCorner"		"0"
		"visible"		"1"
		"enabled"		"1"
		"tabPosition"		"0"
		"labelText"		"#GameUI_DisplayMode"
		"textAlignment"		"west"
		"associate"		"AspectRatio"
		"dulltext"		"0"
		"brighttext"		"0"
	}
}
