"Resource/OptionsSubTest.res"
{
	"OptionsSubTest"
	{
		"ControlName"		"COptionsSubTest"
		"fieldName"		"OptionsSubTest"
		"xpos"		"0"
		"ypos"		"28"
		"wide"		"496"
		"tall"		"305"
		"autoResize"		"0"
		"pinCorner"		"0"
		"RoundedCorners"		"15"
		"pin_corner_to_sibling"		"0"
		"pin_to_sibling_corner"		"0"
		"visible"		"1"
		"enabled"		"1"
		"tabPosition"		"0"
	}
