"Resource\SaveGameDialog.res"
{
	"SaveGameDialog"
	{
		"ControlName"		"Frame"
		"fieldName"		"SaveGameDialog"
		"xpos"		"152"
		"ypos"		"142"
		"wide"		"508"
		"tall"		"414"
		"autoResize"		"0"
		"pinCorner"		"0"
		"visible"		"1"
		"enabled"		"1"
		"tabPosition"		"0"
	}
	"HelpText"
	{
		"ControlName"		"Label"
		"fieldName"		"HelpText"
		"xpos"		"20"
		"ypos"		"32"
		"wide"		"426"
		"tall"		"44"
		"autoResize"		"0"
		"pinCorner"		"0"
		"visible"		"1"
		"enabled"		"1"
		"tabPosition"		"0"
		"labelText"		"#GameUI_SaveGameHelp"
		"textAlignment"		"west"
		"dulltext"		"1"
		"brighttext"		"0"
	}
	"Save"
	{
		"ControlName"		"Button"
		"fieldName"		"Save"
		"xpos"		"338"
		"ypos"		"378"
		"wide"		"82"
		"tall"		"24"
		"autoResize"		"0"
		"pinCorner"		"3"
		"visible"		"1"
		"enabled"		"1"
		"tabPosition"		"2"
		"labelText"		"#GameUI_Save"
		"textAlignment"		"west"
		"dulltext"		"0"
		"brighttext"		"0"
		"command"		"Save"
		"default"		"1"
	}
	"Cancel"
	{
		"ControlName"		"Button"
		"fieldName"		"Cancel"
		"xpos"		"432"
		"ypos"		"378"
		"wide"		"64"
		"tall"		"24"
		"autoResize"		"0"
		"pinCorner"		"3"
		"visible"		"1"
		"enabled"		"1"
		"tabPosition"		"3"
		"labelText"		"#GameUI_Cancel"
		"textAlignment"		"west"
		"dulltext"		"0"
		"brighttext"		"0"
		"command"		"Close"
		"default"		"0"
	}
	"listpanel_loadgame"
	{
		"ControlName"		"ListPanel"
		"fieldName"		"listpanel_loadgame"
		"xpos"		"16"
		"ypos"		"82"
		"wide"		"478"
		"tall"		"286"
		"autoResize"		"3"
		"pinCorner"		"0"
		"visible"		"1"
		"enabled"		"1"
		"tabPosition"		"1"
	}
	"BuildDialog"
	{
		"ControlName"		"BuildModeDialog"
		"fieldName"		"BuildDialog"
		"xpos"		"660"
		"ypos"		"142"
		"wide"		"285"
		"tall"		"665"
		"autoResize"		"0"
		"pinCorner"		"0"
		"visible"		"1"
		"enabled"		"1"
		"tabPosition"		"0"
	}
}
