"Resource/UI/SpectatorGUI.res"
{
	"SpectatorGUI"
	{
		"ControlName"		"Frame"
		"fieldName"		"SpectatorGUI"
		"xpos"		"0"
		"ypos"		"0"
		"wide"		"640"
		"tall"		"40"
		"autoResize"	"0"
		"pinCorner"		"0"
		"visible"		"1"
		"enabled"		"1"
		"tabPosition"		"0"
	}
	"SysMenu"
	{
		"ControlName"		"Menu"
		"fieldName"		"SysMenu"
		"xpos"		"0"
		"ypos"		"0"
		"wide"		"64"
		"tall"		"24"
		"autoResize"		"0"
		"pinCorner"		"0"
		"visible"		"0"
		"enabled"		"1"
		"tabPosition"		"0"
	}
	"TopBar"
	{
		"ControlName"		"Panel"
		"fieldName"		"TopBar"
		"xpos"		"0"
		"ypos"		"0"
		"wide"		"640"
		"tall"		"40"
		"autoResize"		"0"
		"pinCorner"		"0"
		"visible"		"1"
		"enabled"		"0"
		"tabPosition"		"0"
	}

	"BottomBar"
	{
		"ControlName"		"EditablePanel"
		"fieldName"		"BottomBar"
		"xpos"		"0"
		"ypos"		"450"
		"wide"		"640"
		"tall"		"40"
		"autoResize"		"0"
		"pinCorner"		"0"
		"visible"		"1"
		"enabled"		"0"
		"tabPosition"		"0"
	}

// this needs to match the size of BottomBar :)
	"bottombarblank"
	{
		"ControlName"		"Panel"
		"fieldName"		"bottombarblank"
		"xpos"		"0"
		"ypos"		"450"
		"wide"		"640"
		"tall"		"40"
		"autoResize"		"0"
		"pinCorner"		"0"
		"visible"		"1"
		"enabled"		"1"
		"tabPosition"		"0"
	}
	"playerlabel"
	{
		"ControlName"		"Label"
		"fieldName"		"playerlabel"
		"xpos"		"300"
		"ypos"		"440"
		"wide"		"200"
		"tall"		"40"
		"autoResize"		"0"
		"pinCorner"		"0"
		"visible"		"0"
		"enabled"		"1"
		"tabPosition"		"0"
	}


	"extrainfo"
	{
		"ControlName"		"Label"
		"fieldName"		"extrainfo"
		"xpos"		"490"
		"ypos"		"10"
		"wide"		"150"
		"tall"		"24"
		"autoResize"	"0"
		"pinCorner"		"0"
		"visible"		"1"
		"enabled"		"1"
		"labelText"		""
		"textAlignment"		"west"
		"dulltext"		"0"
		"brighttext"		"0"
	}

	"CTScore"
	{
		"ControlName"		"Label"
		"fieldName"		"CTScore"
		"xpos"		"400"
		"ypos"		"5"
		"wide"		"150"
		"tall"		"20"
		"autoResize"	"0"
		"pinCorner"		"0"
		"visible"		"1"
		"enabled"		"1"
		"labelText"		""
		"textAlignment"		"west"
		"dulltext"		"0"
		"brighttext"		"0"
	}

	"TERScore"
	{
		"ControlName"		"Label"
		"fieldName"		"TERScore"
		"xpos"		"400"
		"ypos"		"20"
		"wide"		"150"
		"tall"		"20"
		"autoResize"	"0"
		"pinCorner"		"0"
		"visible"		"1"
		"enabled"		"1"
		"labelText"		""
		"textAlignment"		"west"
		"dulltext"		"0"
		"brighttext"		"0"
	}


	"DividerBar"
	{
		"ControlName"		"Panel"
		"fieldName"		"DividerBar"
		"xpos"		"480"
		"ypos"		"0"
		"wide"		"10"
		"tall"		"40"
		"autoResize"		"0"
		"pinCorner"		"0"
		"visible"		"1"
		"enabled"		"0"
		"tabPosition"		"0"
	}

	"timerlabel"
	{
		"ControlName"		"Label"
		"fieldName"		"timerlabel"
		"xpos"		"370"
		"ypos"		"10"
		"wide"		"40"
		"tall"		"24"
		"autoResize"	"0"
		"pinCorner"		"0"
		"visible"		"1"
		"enabled"		"1"
		"labelText"		"00:00"
		"textAlignment"		"center"
		"dulltext"		"0"
		"brighttext"		"0"
	}

	"timerimage"
	{
		"ControlName"		"ImagePanel"
		"fieldName"		"timerimage"
		"xpos"		"350"
		"ypos"		"10"
		"wide"		"20"
		"tall"		"20"
		"autoResize"	"0"
		"pinCorner"		"0"
		"visible"		"1"
		"enabled"		"1"
		"labelText"		""
		"textAlignment"		"center"
		"dulltext"		"0"
		"brighttext"		"0"
		"image"			"gfx/vgui/timer"
		"scaleImage"		"1"
	}

}
