"LightmappedGeneric"
{
	// Original shader: BaseTimesLightmapAlphaBlend
	"$translucent" 1
	"$basetexture" "Metal/metalfence001a"
	"%compilepassbullets" 1
	"$surfaceprop" "metal"
	"%keywords" "c17downtown"
}
