"LightmappedGeneric"
{
	// Original shader: CubicEnvMapBlendMaskedBaseTimesLightmap
	"$basealphaenvmapmask" 1
	"$basetexture" "Metal/metalwall056a"
	"$envmap" "env_cubemap"
	"$surfaceprop" "metal"
	"%keywords" "c17industrial,combine,wasteland"
}
