"LightmappedGeneric"
{
	// Original shader: BaseTimesLightmapAlphaBlend
	"$translucent" 1
	"$basetexture" "Metal/metalfence004a"
	"%compilepassbullets" 1
	"$surfaceprop" "metal"
	"%keywords" "c17downtown,c17industrial"
	"%compileladder" 1
}
