"VertexLitGeneric"
{
	"$basetexture" "Models/props_citizen_tech/Wind_Mill_Blade004b"
	"$surfaceprop" "metal"
	"$envmap" "Environment Maps/envmapcombine"
	"$envmapsphere" 1
	"$envmaptint" "[ .5 .5 .5]"
	"$basealphaenvmapmask" 1
}
