"Refract"
{
 
 	"$refractamount" ".24"
 	"$bluramount" "0"
	"$scale" "[1 1]"
 	"$dudvmap" "effects/strider_bulge_dudv"
 	"$normalmap" "effects/strider_bulge_normal"
	"$bumpframe" "0"
	"$translucent" "1"
	"$ignorez" "1"
}