"classes/escort.res"
{

	"infolabel"
	{
		"ControlName"		"Label"
		"fieldName"		"infolabel"
		"xpos"		"0"
		"ypos"		"140"
		"wide"		"150"
		"tall"		"24"
		"autoResize"	"0"
		"pinCorner"		"0"
		"visible"		"1"
		"enabled"		"1"
		"labelText"		"This is the default label"
		"textAlignment"		"center"
		"dulltext"		"0"
		"brighttext"		"0"
	}
}