"LightmappedGeneric"
{
	"$basetexture" "Building_Template/Building_Template013h"
	"$surfaceprop" "concrete"
	"$bumpmap" "Building_Template/Building_Template013h_normal"
	"$envmap" "env_cubemap"
	"$normalmapalphaenvmapmask" 1
	"$envmapcontrast" 1
	"$envmapsaturation" 1
	"$envmaptint" "[ .5 .5 .5]"
}
