"LightmappedGeneric"
{
	// Original shader: BaseTimesLightmapPlusMaskedSphericalEnvMap
	"$basetexture" "halflife/c1a4_silo5"
	"$envmapsphere" 1
	"$envmap" "environment maps/envmap001a"
	"$envmapmask" "halflife/c1a4_silo5r"
	"$surfaceprop" "metal"
}
