"VertexLitGeneric"
{
	// Original shader: VertexLitMaskedEnvMappedTexture
	"$basetexture" "Models/props_c17/doorlever01"
	"$envmapmask" "Models/props_c17/doorlever01_mask"
	//"$envmap" "environment maps/envmap001a"
	//"$envmapsphere" 1
	"$envmap" "env_cubemap"
	"$multipass" 1
	"$surfaceprop" "metal"
}



