"VertexLitGeneric"
{
	"$baseTexture" "models/props_c17/fountain"
	"$bumpmap" "models/props_c17/fountain_normal"
	"$envmap" "env_cubemap"
	"$surfaceprop" "metal"
	"$envmapcontrast" 1
	"$envmapsaturation" 1
	//"$envmaptint" "[ .75 .75 .75]"

}
