"VertexLitGeneric"
{
	"$basetexture" "Models/props_c17/News_Paper_Stand001"
	"$surfaceprop" "metal"
	"$basealphaenvmapmask" 1
	"$envmap" "env_cubemap"
	"$envmapcontrast" 1
	"$envmapsaturation" 1
	"$envmaptint" "[ .5 .5 .5]"
}
