"VertexLitGeneric"
{
	"$basetexture" "Models/props_c17/Trash_Can001"
	"$surfaceprop" "metal"
	"$bumpmap" "Models/props_c17/Trash_Can001_normal"
	"$envmap" "env_cubemap"
	"$normalmapalphaenvmapmask" 1
	"$envmap" "env_cubemap"
	"$envmapcontrast" 1
	"$envmapsaturation" 1
	"$envmaptint" "[ .5 .5 .5]"
}
