"LightmappedGeneric"
{
	// Original shader: SphericalEnvMapBlendMaskedBaseTimesLightmap
	"$envmapsphere" 1
	"$basealphaenvmapmask" 1
	"$basetexture" "props/metalpanel013a"
	"$envmap" "environment maps/envmap001a"
	"$surfaceprop" "metal"
	"%keywords" "borealis"
}
