"LightmappedGeneric"
{
	// Original shader: SphericalEnvMapBlendMaskedBaseTimesLightmap
	"$envmapsphere" 1
	"$basealphaenvmapmask" 1
	"$basetexture" "Props/metalpanel002a"
	"$envmap" "environment maps/envmap001a"
	"$surfaceprop" "metal"
	"$envmaptint" "[ 0.5 0.5 0.5 ]"
	"%keywords" "borealis"
}
