"LightmappedGeneric"
{
	// Original shader: BaseTimesLightmapAlphaBlend
	"$translucent" 1
//	"$alphatest" 1
	"$basetexture" "props/signstreet006a"
	"$surfaceprop" "metal"
	"%keywords" "c17downtown"
}
