"VertexLitGeneric"
{
	"$baseTexture"			"models/player/commando/armslegs"
	"$color"	"[1 1 1]"
	"$selfIllum"			0
	"$selfIllumTint"			"[0 0 0]"
	"$translucency"			0
	"$alpha"			1
	"Proxies"
	{
		"TeamTexture"
		{
		}
	}
}
