//.vmt file generated by MAYA. Remove this line if you edit this file! -- theo 
"VertexLitGeneric"
{

	"$color"				"[1 1 1]"
	"$baseTexture"				"models/player/commando/human_commando_texture"
	"$basealphaenvmapmask" 			1
	"$envmap" 					"models/player/commando/commando_env"
	"$envmapsphere" 1
	"$selfIllum"				0
	"$translucent"				0
	"$alpha"				1
}
