"WorldVertexTransition"
{
	"$basetexture" "nature/dirtfloor012b"
	"$basetexture2" "nature/dirtfloor006d"
	
	"$micros" "overlays/macro01a"
	"$micros_transform" "center .5 .5 scale .1 .1 rotate 22 translate 0 0"
		
	"%tooltexture" "nature/blenddirtgrass006a_tooltexture"
	
        "$basetexturetransform" "center .5 .5 scale 1 1 rotate 0 translate 0 0"
        "$basetexturetransform2" "center .5 .5 scale 1 1 rotate 10 translate 0 0"

	"%detailtype" "coastline_redgrass01"
	"$surfaceprop" "dirt"
	"$bumpbasetexture2withbumpmap" "0"
//	"$bumpmap" "nature/dirtfloor012b_normal"
	"%keywords" "coastline"
}
