"WorldVertexTransition"
{
	"$basetexture" "nature/rockwall011g"
	"$basetexture2" "nature/sandfloor009b"
	"$basetexturetransform" "center .5 .5 scale .5 .5 rotate 0 translate 0 0"
	"$basetexturetransform2" "center .5 .5 scale .25 .25 rotate 0 translate 0 0"
	"%tooltexture" "nature/rockwall011g"
//	"%detailtype" "rocks1"
	"%keywords" "wasteland"
	"$surfaceprop" "dirt"
}
