"WorldVertexTransition"
{
	"$basetexture" "nature/sandfloor009a"
	"$basetexture2" "nature/sandfloor005a"
	"%tooltexture" "nature/sandfloor005a"
	"%keywords" "wasteland"
	"$surfaceprop" "sand"
	"$bumpmap" "Nature/sandfloor009a_normal"
	\\"$normalmapalphaenvmapmask" 1
	\\"$envmapcontrast" 1
	\\"$envmapsaturation" 1
	\\"$envmaptint" "[ .5 .5 .5]"
	\\"$envmap" "env_cubemap"
	"$bumpbasetexture2withbumpmap" "1"
}
