"WorldVertexTransition"
{
	"$basetexture" "nature/sandfloor009a"
	"$basetexture2" "nature/sandfloor009b"
	"%tooltexture" "nature/sandfloor009a"
	"%keywords" "wasteland"
	"$basealphaenvmapmask" 1
	"$surfaceprop" "sand"
	"$envmapcontrast" 1
	"$envmapsaturation" 1
	"$envmaptint" "[ .5 .5 .5]"
	"$envmap" "env_cubemap"
}
